<?xml version="1.0" encoding="UTF-8" standalone="no"?>
<!-- Created with Inkscape (http://www.inkscape.org/) -->

<svg
   xmlns:dc="http://purl.org/dc/elements/1.1/"
   xmlns:cc="http://creativecommons.org/ns#"
   xmlns:rdf="http://www.w3.org/1999/02/22-rdf-syntax-ns#"
   xmlns:svg="http://www.w3.org/2000/svg"
   xmlns="http://www.w3.org/2000/svg"
   xmlns:sodipodi="http://sodipodi.sourceforge.net/DTD/sodipodi-0.dtd"
   xmlns:inkscape="http://www.inkscape.org/namespaces/inkscape"
   width="150"
   height="150"
   viewBox="0 0 149.99999 149.99998"
   id="svg2"
   version="1.1"
   inkscape:version="0.91 r13725"
   sodipodi:docname="green.svg">
  <defs
     id="defs4">
    <marker
       inkscape:isstock="true"
       style="overflow:visible"
       id="Arrow1Lstart"
       refX="0"
       refY="0"
       orient="auto"
       inkscape:stockid="Arrow1Lstart">
      <path
         transform="matrix(0.8,0,0,0.8,10,0)"
         style="fill:#ffffff;fill-opacity:1;fill-rule:evenodd;stroke:#000000;stroke-width:1pt;stroke-opacity:1"
         d="M 0,0 5,-5 -12.5,0 5,5 0,0 Z"
         id="path4164"
         inkscape:connector-curvature="0" />
    </marker>
    <marker
       inkscape:isstock="true"
       style="overflow:visible"
       id="Arrow1Lstart-9"
       refX="0"
       refY="0"
       orient="auto"
       inkscape:stockid="Arrow1Lstart">
      <path
         transform="matrix(0.8,0,0,0.8,10,0)"
         style="fill:#ffffff;fill-opacity:1;fill-rule:evenodd;stroke:#000000;stroke-width:1pt;stroke-opacity:1"
         d="M 0,0 5,-5 -12.5,0 5,5 0,0 Z"
         id="path4164-1"
         inkscape:connector-curvature="0" />
    </marker>
    <marker
       inkscape:isstock="true"
       style="overflow:visible"
       id="Arrow1Lstart-6"
       refX="0"
       refY="0"
       orient="auto"
       inkscape:stockid="Arrow1Lstart">
      <path
         transform="matrix(0.8,0,0,0.8,10,0)"
         style="fill:#ffffff;fill-opacity:1;fill-rule:evenodd;stroke:#000000;stroke-width:1pt;stroke-opacity:1"
         d="M 0,0 5,-5 -12.5,0 5,5 0,0 Z"
         id="path4164-2"
         inkscape:connector-curvature="0" />
    </marker>
  </defs>
  <sodipodi:namedview
     id="base"
     pagecolor="#ffffff"
     bordercolor="#666666"
     borderopacity="1.0"
     inkscape:pageopacity="0.0"
     inkscape:pageshadow="2"
     inkscape:zoom="4.3322076"
     inkscape:cx="53.708534"
     inkscape:cy="70.857076"
     inkscape:document-units="in"
     inkscape:current-layer="layer1"
     showgrid="false"
     units="px"
     inkscape:showpageshadow="false"
     showguides="false"
     inkscape:window-width="1855"
     inkscape:window-height="1056"
     inkscape:window-x="65"
     inkscape:window-y="24"
     inkscape:window-maximized="1"
     objecttolerance="10000"
     inkscape:snap-bbox="true"
     guidetolerance="10000"
     inkscape:object-nodes="true"
     fit-margin-top="0"
     fit-margin-left="0"
     fit-margin-right="0"
     fit-margin-bottom="0"
     width="200mm">
    <inkscape:grid
       type="xygrid"
       id="grid3338"
       spacingx="25.000001"
       spacingy="25"
       empspacing="1"
       originx="49.999997"
       originy="49.999976" />
  </sodipodi:namedview>
  <metadata
     id="metadata7">
    <rdf:RDF>
      <cc:Work
         rdf:about="">
        <dc:format>image/svg+xml</dc:format>
        <dc:type
           rdf:resource="http://purl.org/dc/dcmitype/StillImage" />
        <dc:title />
      </cc:Work>
    </rdf:RDF>
  </metadata>
  <g
     inkscape:label="Layer 1"
     inkscape:groupmode="layer"
     id="layer1"
     transform="translate(49.999998,-952.36222)">
    <path
       style="opacity:1;fill:#00ff00;fill-opacity:1;stroke:#000000;stroke-width:5;stroke-linecap:butt;stroke-miterlimit:4;stroke-dasharray:none;stroke-opacity:1"
       d="m 24.999994,954.86222 a 72.499999,72.499999 0 0 0 -72.499992,72.49998 72.499999,72.499999 0 0 0 72.499992,72.5 72.499999,72.499999 0 0 0 72.49999,-72.5 72.499999,72.499999 0 0 0 -72.49999,-72.49998 z m 0,24.16666 a 48.333337,48.333337 0 0 1 48.333322,48.33332 48.333337,48.333337 0 0 1 -48.333322,48.3333 48.333337,48.333337 0 0 1 -48.333326,-48.3333 48.333337,48.333337 0 0 1 48.333326,-48.33332 z"
       id="path4513-0"
       inkscape:connector-curvature="0" />
    <path
       d="m 25.410164,974.86222 10.898828,-9.4923 0,-0.117 -4.336092,-2.5781 0.585958,-0.4688 -2.578218,-2.3438 -15.000536,0 0,1.1718 -0.117199,0.3516 -0.70315,0.3516 -0.351576,0.8204 0.1172,1.5234 0,0.5859 -0.234384,0.7033 4.687668,5.9765 -0.351576,1.172 0,0.117 1.171917,-0.2343 1.523493,1.9922 0.234383,0.117 4.218901,0.3516 0.234383,0 z m 0,-0.117 0,-2.3438 2.578217,-0.5861 0,-0.117 c 0.468767,-1.1718 0.468767,-2.5781 -0.234382,-3.75 l 0,-0.2343 c 0.468766,-1.0547 0.234382,-2.2267 -0.351575,-3.1642 l 0.234384,0 0.468765,-0.4688 c 2.10945,3.2813 1.992259,6.4455 0.117199,8.2032 -1.757875,1.6408 -2.8126,2.4611 -2.8126,2.4611 z m -0.234383,0 -4.218901,-0.3516 0,-2.3438 2.226642,-0.5859 0,-0.117 -0.1172,0 0.351576,-1.6406 c 0.585958,0.8204 0.117199,2.1093 -0.351576,2.9297 l 0,0.117 2.050856,-0.293 0.05859,2.2853 z m -4.453284,-0.4688 -1.406301,-1.875 1.347704,-0.293 0.05859,2.168 z m 2.8126,-1.7579 1.582089,-0.5859 0,0.293 -1.582089,0.2929 z m -5.273626,-0.059 0.703149,-0.2929 0.1172,0.117 -0.820342,0.1758 z m 0.937533,-0.2343 -0.117199,-0.117 1.582087,-0.5274 0,0.293 -1.464896,0.3516 z m 6.21116,-0.059 0,-0.2343 c 0.585959,-0.2344 1.289109,-0.3516 1.875069,-0.117 l -1.875069,0.3516 z m -4.453284,-0.3516 0,-0.2343 1.523493,-0.117 -1.523493,0.3515 z m -2.578217,-0.5859 -4.570476,-5.8594 2.812601,-0.4687 0.820342,-0.5861 c 0.468765,1.172 0.234384,2.5782 -0.117199,3.7502 l -0.117199,0 0,0.2343 0.117199,0 c 0.82034,0.8204 1.289108,1.7579 1.054724,2.9297 z m 5.156434,-2.5781 1.4063,-0.2344 0,0.117 -1.4063,0.117 z m 1.757875,-0.117 0,-0.1756 2.109452,-0.4103 c -0.601193,0.4893 -1.515055,0.5409 -2.109452,0.5859 z m -1.992259,-0.059 1.640684,-0.5274 0,0.2345 -1.640684,0.2929 z m 1.992259,-0.3516 0,-0.2929 c 0.58596,-0.117 1.28911,-0.117 1.875069,0 l -1.875069,0.2929 z m -7.500266,0.058 2.578215,-0.3516 0,0.2345 c -0.820343,0.1756 -1.699278,0.117 -2.578215,0.117 z m -0.234384,-0.117 c 0.878937,-0.4688 1.81647,-0.7619 2.812599,-0.8204 l 0,0.3516 -2.812599,0.4688 z m 3.281366,-0.117 0,-0.1758 1.171918,-0.293 -1.171918,0.4688 z m 2.10945,-0.3515 -0.234381,-0.3516 0.351573,-0.9375 c 0,0 0.117199,0.8204 -0.1172,1.2891 z m -2.10945,-0.059 0,-0.2929 1.523493,0 -1.523493,0.2929 z m 7.383077,-3.4571 c 0.937534,-1.1719 2.050855,-1.5234 3.398559,-0.9375 l 4.453284,2.2267 c 0,0 -0.351574,0.4687 -0.820341,0.703 -2.578217,1.4649 -5.039244,-0.703 -7.031502,-1.9922 z m -3.046984,0.7031 0,-0.2343 1.523492,-0.117 c -0.468767,0.1758 -0.99613,0.2929 -1.523492,0.3514 z m -0.351576,0 -1.640683,-0.117 1.640683,-0.117 0,0.2343 z m -1.640683,-0.2343 c -0.05859,-0.5274 -0.389077,-1.2678 -0.468765,-1.4063 l 0,-0.2344 -2.109452,0.117 0,-1.4063 c 1.640684,-0.2345 2.343833,0.5859 2.929792,1.9922 l 0.70315,0.117 0.117199,0.4687 0.468767,0 0,0.2345 -1.640684,0.117 z m 1.992259,-0.117 0,-0.117 0.761746,0.059 -0.761746,0.058 z m -4.570476,-0.8204 0,-0.3516 1.523493,-0.117 -1.523493,0.4688 z m -0.351576,0 -1.992258,-0.117 1.992258,-0.2344 0,0.3516 z m -1.992258,-0.3516 c 0,-1.2891 0.820341,-1.6992 1.992258,-1.6406 l 0,1.4063 -1.992258,0.2343 z"
       id="path12357-6"
       inkscape:connector-curvature="0"
       style="fill:#000000;fill-rule:evenodd" />
    <path
       id="path4459"
       d="m 25.476184,1080.6362 0,0.9524 0,1.4286 -2.23493,0 0.238095,0.7142 -1.336493,0 0,-0.8087 c 1.405036,0.3258 1.38466,-0.7937 2.619043,-1.096 -1.666664,0 -1.666664,0.9524 -3.095233,0 l 0,0.9524 0,0.9523 -2.256319,0 0.130673,0.3265 c 0,0 0.458983,1.155 0.458983,2.5307 0,1.0714 -0.464564,2.546 -0.464564,2.546 l -0.09998,0.3111 2.231208,0 0,1.3807 -1.35649,-0.9045 -2.691122,0 0,2.8144 1.261158,0.252 c 0.0566,0.1374 0.172783,0.3933 0.452939,0.7668 0.316905,0.4226 0.813139,0.9301 1.551336,1.3751 -0.06109,0.017 -0.119105,0.03 -0.1702,0.03 -0.158731,0 -0.369697,-0.094 -0.607792,-0.213 -0.238095,-0.119 -0.503318,-0.2632 -0.820777,-0.2632 -0.317459,0 -0.582682,0.1442 -0.820777,0.2632 -0.238095,0.1191 -0.449061,0.213 -0.607792,0.213 a 0.23811862,0.23811862 0 1 0 0,0.4762 c 0.317459,0 0.582683,-0.1442 0.820777,-0.2632 0.238095,-0.1191 0.449061,-0.213 0.607792,-0.213 0.158731,0 0.369697,0.094 0.607792,0.213 0.238095,0.119 0.503318,0.2632 0.820777,0.2632 0.317459,0 0.58268,-0.1442 0.820775,-0.2632 0.238095,-0.1191 0.449063,-0.213 0.607794,-0.213 0.158731,0 0.369697,0.094 0.607792,0.213 0.238095,0.119 0.503316,0.2632 0.820777,0.2632 0.317459,0 0.58268,-0.1442 0.820775,-0.2632 0.238095,-0.1191 0.449064,-0.213 0.607794,-0.213 0.158729,0 0.369697,0.094 0.607792,0.213 0.238095,0.119 0.503316,0.2632 0.820777,0.2632 0.317459,0 0.58268,-0.1442 0.820775,-0.2632 0.238095,-0.1191 0.449064,-0.213 0.607794,-0.213 0.146919,0 0.341519,0.084 0.558035,0.1907 a 0.23811862,0.23811862 0 0 0 0.09719,0.045 c 0.226152,0.1138 0.476287,0.24 0.773342,0.24 0.317461,0 0.582682,-0.1442 0.820777,-0.2632 0.238095,-0.1191 0.449063,-0.213 0.607792,-0.213 0.15873,0 0.369699,0.094 0.607794,0.213 0.238095,0.119 0.503316,0.2632 0.820775,0.2632 a 0.23811862,0.23811862 0 1 0 0,-0.4762 c -0.158729,0 -0.369697,-0.094 -0.607792,-0.213 -0.238095,-0.119 -0.503316,-0.2632 -0.820777,-0.2632 -0.317459,0 -0.58268,0.1442 -0.820775,0.2632 -0.238095,0.1191 -0.449064,0.213 -0.607794,0.213 -0.03968,0 -0.08253,-0.01 -0.128348,-0.017 1.098586,-0.5592 3.738218,-2.178 3.937401,-4.9665 l 0.01814,-0.2548 -2.636714,0 0,-0.4762 1.573192,0 0.0665,-0.1284 c 0,0 0.503161,-0.9486 0.503161,-2.0145 0,-1.2516 -0.759391,-2.2823 -0.759391,-2.2823 l -0.07115,-0.099 -0.121838,0 -1.190474,0 0,-1.2849 c 1.405038,0.3258 1.384659,-0.7938 2.619043,-1.0961 -1.666664,0 -1.666664,0.9524 -3.095233,0 l 0,0.9524 0,1.2156 c -0.294071,-0.9547 -0.763113,-1.5979 -0.763113,-1.5979 l -0.07115,-0.094 -3.213351,0 0,-1.2849 c 1.405038,0.3258 1.384659,-0.7937 2.619043,-1.096 -1.666664,0 -1.666664,0.9524 -3.095233,0 z m -1.574588,2.8571 1.77269,0 a 0.23811862,0.23811862 0 0 0 0.07766,0 l 3.164057,0 c 0.08066,0.1119 0.454775,0.6513 0.683127,1.4933 a 0.2380948,0.2380948 0 0 0 -0.07534,0.1734 0.2380948,0.2380948 0 0 0 0.172992,0.2288 l 0.0019,0.01 0.49944,0 a 0.23811862,0.23811862 0 0 0 0.07766,0 l 1.252324,0 c 0.09189,0.1366 0.614768,0.9355 0.614768,1.9047 0,0.8076 -0.315868,1.4964 -0.397135,1.6667 l -1.470886,0 a 0.23811862,0.23811862 0 0 0 -0.04046,0 0.23811862,0.23811862 0 0 0 -0.03441,0 l -3.061751,0 -0.01443,-0.186 -0.180431,-0.1139 -0.199033,0.076 -0.04511,0.071 -0.0088,0.022 0.01024,0.1307 -0.949589,0 a 0.23811862,0.23811862 0 0 0 -0.04046,0 0.23811862,0.23811862 0 0 0 -0.03441,0 l -1.679685,0 -0.0037,-0.041 -0.181826,-0.1111 -0.198569,0.079 -0.04371,0.072 -4.76e-4,0 -1.626671,0 a 0.23811862,0.23811862 0 0 0 -0.04046,0 0.23811862,0.23811862 0 0 0 -0.03441,0 l -1.793152,0 c 0.115731,-0.3831 0.402714,-1.386 0.402714,-2.3809 0,-1.1785 -0.264819,-2.0143 -0.392483,-2.381 l 1.781059,0 a 0.23811862,0.23811862 0 0 0 0.07766,0 l 1.830354,0 -0.02976,0.053 0.01117,0.083 0.007,0.023 0.148809,0.1525 0.211588,-0.027 0.104631,-0.186 -0.01117,-0.083 -0.007,-0.023 -0.108352,-0.1112 -0.198102,-0.5947 z m 3.955536,1.4286 a 0.2380948,0.2380948 0 0 0 -0.238094,0.2381 0.2380948,0.2380948 0 0 0 0.238094,0.2381 0.2380948,0.2380948 0 0 0 0.238095,-0.2381 0.2380948,0.2380948 0 0 0 -0.238095,-0.2381 z m 0.952377,0 a 0.2380948,0.2380948 0 0 0 -0.238095,0.2381 0.2380948,0.2380948 0 0 0 0.238095,0.2381 0.2380948,0.2380948 0 0 0 0.238095,-0.2381 0.2380948,0.2380948 0 0 0 -0.238095,-0.2381 z m -1.905687,0.01 -0.196242,0.083 -0.05115,0.207 0.03302,0.077 0.01302,0.02 0.184149,0.1075 0.196243,-0.083 0.05115,-0.2069 -0.03302,-0.077 -0.01302,-0.02 -0.184152,-0.1074 z m -2.810636,0.08 -0.131602,0.1679 -0.0019,0.084 0.0037,0.024 0.123697,0.1735 0.21345,0 0.131602,-0.1679 0.0019,-0.084 -0.0037,-0.023 -0.123698,-0.1739 -0.213449,0 z m 3.283571,0.819 -0.212054,0.021 -0.109748,0.1832 0.0084,0.083 0.0065,0.023 0.144159,0.1567 0.212519,-0.021 0.109748,-0.1828 -0.0084,-0.084 -0.0065,-0.023 -0.144624,-0.1572 z m -3.159407,0.1404 -0.152064,0.1498 -0.01255,0.083 4.77e-4,0.024 0.100445,0.1884 0.210659,0.032 0.152064,-0.1493 0.01255,-0.083 -4.76e-4,-0.024 -0.100448,-0.1883 -0.210657,-0.032 z m 3.099417,0.818 -0.16276,0.1381 -0.01859,0.082 -9.52e-4,0.024 0.08603,0.1953 0.207869,0.047 0.162759,-0.1377 0.01859,-0.082 0.0014,-0.024 -0.08603,-0.1953 -0.208333,-0.048 z m -3.101743,0.1502 -0.167409,0.1321 -0.02138,0.081 -0.0024,0.024 0.07952,0.1982 0.206009,0.055 0.167409,-0.1321 0.02186,-0.081 0.0019,-0.024 -0.07952,-0.1981 -0.206009,-0.055 z m 3.001298,0.8064 -0.187872,0.1009 -0.03534,0.076 -0.0065,0.023 0.04371,0.2088 0.192988,0.09 0.188336,-0.1009 0.03534,-0.076 0.0061,-0.023 -0.04325,-0.2088 -0.193452,-0.09 z m -3.131505,0.1511 -0.183221,0.1088 -0.03209,0.078 -0.0051,0.023 0.05255,0.2069 0.19671,0.081 0.183685,-0.1088 0.03209,-0.078 0.0051,-0.023 -0.05255,-0.2065 -0.197171,-0.082 z m -1.941961,1.5527 3.333328,0 0,1.4286 -3.333328,0 0,-1.4286 z m 3.809518,0 4.047609,0 0,0.4762 -0.321799,0 -1.190474,0.9524 -2.535336,0 0,-1.4286 z m -7.85713,0.9524 2.070775,0 1.428567,0.9524 0.270183,0 a 0.23811862,0.23811862 0 0 0 0.07766,0 l 3.731858,0 a 0.23811862,0.23811862 0 0 0 0.07766,0 l 2.903176,0 1.190474,-0.9524 0.352492,0 a 0.23811862,0.23811862 0 0 0 0.07766,0 l 2.287942,0 c -0.386719,2.7507 -3.515697,4.2815 -3.988089,4.4982 -0.211925,-0.1057 -0.445108,-0.2125 -0.718467,-0.2125 -0.317462,0 -0.582683,0.1442 -0.820778,0.2632 -0.238094,0.1191 -0.449063,0.213 -0.607791,0.213 -0.158731,0 -0.3697,-0.094 -0.607795,-0.213 -0.238094,-0.119 -0.503315,-0.2632 -0.820774,-0.2632 -0.317462,0 -0.582683,0.1442 -0.820778,0.2632 -0.238095,0.1191 -0.449064,0.213 -0.607792,0.213 -0.158731,0 -0.369699,-0.094 -0.607794,-0.213 -0.238095,-0.119 -0.503316,-0.2632 -0.820775,-0.2632 -0.269583,0 -0.500013,0.1041 -0.709634,0.2083 -0.855182,-0.4485 -1.393793,-0.9892 -1.718747,-1.4225 -0.338095,-0.4508 -0.440847,-0.7659 -0.440847,-0.7659 l -0.04372,-0.1311 -1.134669,-0.227 0,-1.9475 z m 3.809517,1.6667 a 0.2380948,0.2380948 0 0 0 -0.238095,0.2381 0.2380948,0.2380948 0 0 0 0.238095,0.238 0.2380948,0.2380948 0 0 0 0.238095,-0.238 0.2380948,0.2380948 0 0 0 -0.238095,-0.2381 z m 0.95238,0 a 0.2380948,0.2380948 0 0 0 -0.238095,0.2381 0.2380948,0.2380948 0 0 0 0.238095,0.238 0.2380948,0.2380948 0 0 0 0.238094,-0.238 0.2380948,0.2380948 0 0 0 -0.238094,-0.2381 z m 0.952379,0 a 0.2380948,0.2380948 0 0 0 -0.238095,0.2381 0.2380948,0.2380948 0 0 0 0.238095,0.238 0.2380948,0.2380948 0 0 0 0.238095,-0.238 0.2380948,0.2380948 0 0 0 -0.238095,-0.2381 z m 0.952379,0 a 0.2380948,0.2380948 0 0 0 -0.238094,0.2381 0.2380948,0.2380948 0 0 0 0.238094,0.238 0.2380948,0.2380948 0 0 0 0.238095,-0.238 0.2380948,0.2380948 0 0 0 -0.238095,-0.2381 z m 0.95238,0 a 0.2380948,0.2380948 0 0 0 -0.238095,0.2381 0.2380948,0.2380948 0 0 0 0.238095,0.238 0.2380948,0.2380948 0 0 0 0.238095,-0.238 0.2380948,0.2380948 0 0 0 -0.238095,-0.2381 z m 0.952379,0 a 0.2380948,0.2380948 0 0 0 -0.238095,0.2381 0.2380948,0.2380948 0 0 0 0.238095,0.238 0.2380948,0.2380948 0 0 0 0.238095,-0.238 0.2380948,0.2380948 0 0 0 -0.238095,-0.2381 z m 0.95238,0 a 0.2380948,0.2380948 0 0 0 -0.238095,0.2381 0.2380948,0.2380948 0 0 0 0.238095,0.238 0.2380948,0.2380948 0 0 0 0.238094,-0.238 0.2380948,0.2380948 0 0 0 -0.238094,-0.2381 z m -10.714268,3.0952 a 0.2380948,0.2380948 0 0 0 -0.238095,0.2381 0.2380948,0.2380948 0 0 0 0.238095,0.2381 0.2380948,0.2380948 0 0 0 0.238095,-0.2381 0.2380948,0.2380948 0 0 0 -0.238095,-0.2381 z m 16.190446,0 a 0.2380948,0.2380948 0 0 0 -0.238095,0.2381 0.2380948,0.2380948 0 0 0 0.238095,0.2381 0.2380948,0.2380948 0 0 0 0.238095,-0.2381 0.2380948,0.2380948 0 0 0 -0.238095,-0.2381 z"
       inkscape:connector-curvature="0"
       style="fill:#000000" />
  </g>
</svg>
