<?xml version="1.0" encoding="UTF-8" standalone="no"?>
<!-- Created with Inkscape (http://www.inkscape.org/) -->

<svg
   xmlns:dc="http://purl.org/dc/elements/1.1/"
   xmlns:cc="http://creativecommons.org/ns#"
   xmlns:rdf="http://www.w3.org/1999/02/22-rdf-syntax-ns#"
   xmlns:svg="http://www.w3.org/2000/svg"
   xmlns="http://www.w3.org/2000/svg"
   xmlns:sodipodi="http://sodipodi.sourceforge.net/DTD/sodipodi-0.dtd"
   xmlns:inkscape="http://www.inkscape.org/namespaces/inkscape"
   width="150"
   height="150"
   viewBox="0 0 149.99999 149.99998"
   id="svg2"
   version="1.1"
   inkscape:version="0.91 r13725"
   sodipodi:docname="red.svg">
  <defs
     id="defs4">
    <marker
       inkscape:isstock="true"
       style="overflow:visible"
       id="Arrow1Lstart"
       refX="0"
       refY="0"
       orient="auto"
       inkscape:stockid="Arrow1Lstart">
      <path
         transform="matrix(0.8,0,0,0.8,10,0)"
         style="fill:#ffffff;fill-opacity:1;fill-rule:evenodd;stroke:#000000;stroke-width:1pt;stroke-opacity:1"
         d="M 0,0 5,-5 -12.5,0 5,5 0,0 Z"
         id="path4164"
         inkscape:connector-curvature="0" />
    </marker>
    <marker
       inkscape:isstock="true"
       style="overflow:visible"
       id="Arrow1Lstart-9"
       refX="0"
       refY="0"
       orient="auto"
       inkscape:stockid="Arrow1Lstart">
      <path
         transform="matrix(0.8,0,0,0.8,10,0)"
         style="fill:#ffffff;fill-opacity:1;fill-rule:evenodd;stroke:#000000;stroke-width:1pt;stroke-opacity:1"
         d="M 0,0 5,-5 -12.5,0 5,5 0,0 Z"
         id="path4164-1"
         inkscape:connector-curvature="0" />
    </marker>
    <marker
       inkscape:isstock="true"
       style="overflow:visible"
       id="Arrow1Lstart-6"
       refX="0"
       refY="0"
       orient="auto"
       inkscape:stockid="Arrow1Lstart">
      <path
         transform="matrix(0.8,0,0,0.8,10,0)"
         style="fill:#ffffff;fill-opacity:1;fill-rule:evenodd;stroke:#000000;stroke-width:1pt;stroke-opacity:1"
         d="M 0,0 5,-5 -12.5,0 5,5 0,0 Z"
         id="path4164-2"
         inkscape:connector-curvature="0" />
    </marker>
  </defs>
  <sodipodi:namedview
     id="base"
     pagecolor="#ffffff"
     bordercolor="#666666"
     borderopacity="1.0"
     inkscape:pageopacity="0.0"
     inkscape:pageshadow="2"
     inkscape:zoom="4.3322076"
     inkscape:cx="88.102084"
     inkscape:cy="81.448"
     inkscape:document-units="in"
     inkscape:current-layer="layer1"
     showgrid="false"
     units="px"
     inkscape:showpageshadow="false"
     showguides="false"
     inkscape:window-width="1855"
     inkscape:window-height="1056"
     inkscape:window-x="65"
     inkscape:window-y="24"
     inkscape:window-maximized="1"
     objecttolerance="10000"
     inkscape:snap-bbox="true"
     guidetolerance="10000"
     inkscape:object-nodes="true"
     fit-margin-top="0"
     fit-margin-left="0"
     fit-margin-right="0"
     fit-margin-bottom="0"
     width="200mm">
    <inkscape:grid
       type="xygrid"
       id="grid3338"
       spacingx="25.000001"
       spacingy="25"
       empspacing="1"
       originx="49.999997"
       originy="49.999976" />
  </sodipodi:namedview>
  <metadata
     id="metadata7">
    <rdf:RDF>
      <cc:Work
         rdf:about="">
        <dc:format>image/svg+xml</dc:format>
        <dc:type
           rdf:resource="http://purl.org/dc/dcmitype/StillImage" />
        <dc:title></dc:title>
      </cc:Work>
    </rdf:RDF>
  </metadata>
  <g
     inkscape:label="Layer 1"
     inkscape:groupmode="layer"
     id="layer1"
     transform="translate(49.999998,-952.36222)">
    <path
       style="opacity:1;fill:#ff0000;fill-opacity:1;stroke:#000000;stroke-width:5;stroke-linecap:butt;stroke-miterlimit:4;stroke-dasharray:none;stroke-opacity:1"
       d="m 24.999994,954.86222 a 72.499999,72.499999 0 0 0 -72.499992,72.49998 72.499999,72.499999 0 0 0 72.499992,72.5 72.499999,72.499999 0 0 0 72.49999,-72.5 72.499999,72.499999 0 0 0 -72.49999,-72.49998 z m 0,24.16666 a 48.333337,48.333337 0 0 1 48.333322,48.33332 48.333337,48.333337 0 0 1 -48.333322,48.3333 48.333337,48.333337 0 0 1 -48.333326,-48.3333 48.333337,48.333337 0 0 1 48.333326,-48.33332 z"
       id="path4513-0"
       inkscape:connector-curvature="0" />
    <g
       id="g3543"
       transform="matrix(0.1215167,0,0,0.12605041,12.635669,1080.133)"
       style="fill:#000000;stroke:#ffffff;stroke-width:3.63598728;stroke-miterlimit:4;stroke-dasharray:none">
      <g
         transform="translate(-3.75,-4)"
         style="display:inline;fill:#000000;stroke:#ffffff;stroke-width:3.63598728;stroke-miterlimit:4;stroke-dasharray:none"
         inkscape:label="hull"
         id="layer3">
        <path
           inkscape:connector-curvature="0"
           sodipodi:nodetypes="cccccccc"
           id="path2765"
           d="m 36,123 147,0 c 8,-8 8,-8 8,-16 l -151,0 c -2,0 -2,0 -4,-1 L 4,90 4,91 c 32,17 32,24 32,32 z"
           style="fill:#000000;fill-opacity:1;fill-rule:nonzero;stroke:#ffffff;stroke-width:3.63598728;stroke-miterlimit:4;stroke-dasharray:none" />
      </g>
      <g
         transform="translate(-3.75,-4)"
         style="display:inline;fill:#000000;stroke:#ffffff;stroke-width:3.63598728;stroke-miterlimit:4;stroke-dasharray:none"
         inkscape:label="spanker"
         id="layer5">
        <path
           id="path3576"
           d="m 161,105 46,-7 0,-1 -46,6 0,2 z"
           style="fill:#000000;fill-opacity:1;fill-rule:nonzero;stroke:#ffffff;stroke-width:3.63598728;stroke-miterlimit:4;stroke-dasharray:none"
           sodipodi:nodetypes="ccccc"
           inkscape:connector-curvature="0" />
        <path
           id="path4306"
           d="m 161,76 27,-11 0,-1 -27,10 0,2 z"
           style="fill:#000000;fill-opacity:1;fill-rule:nonzero;stroke:#ffffff;stroke-width:3.63598728;stroke-miterlimit:4;stroke-dasharray:none"
           sodipodi:nodetypes="ccccc"
           inkscape:connector-curvature="0" />
      </g>
      <g
         transform="translate(-3.75,-4)"
         style="display:inline;fill:#000000;stroke:#ffffff;stroke-width:3.63598728;stroke-miterlimit:4;stroke-dasharray:none"
         inkscape:label="mizzen"
         id="layer6">
        <path
           id="path1435"
           d="m 161,24 -1,0 -1,12 -1,71 3,0 0,-83 z"
           style="display:inline;fill:#000000;fill-opacity:1;fill-rule:nonzero;stroke:#ffffff;stroke-width:3.63598728;stroke-miterlimit:4;stroke-dasharray:none"
           sodipodi:nodetypes="cccccc"
           inkscape:connector-curvature="0" />
        <path
           sodipodi:nodetypes="cccccc"
           id="path1437"
           d="m 144,53 34,0 0,-1 -17,-1 -17,1 0,1 z"
           style="fill:#000000;fill-opacity:1;fill-rule:nonzero;stroke:#ffffff;stroke-width:3.63598728;stroke-miterlimit:4;stroke-dasharray:none"
           inkscape:connector-curvature="0" />
        <path
           sodipodi:nodetypes="cccccc"
           id="path1439"
           d="m 182,76 -42,0 0,-1 21,-1 21,1 0,1 z"
           style="fill:#000000;fill-opacity:1;fill-rule:nonzero;stroke:#ffffff;stroke-width:3.63598728;stroke-miterlimit:4;stroke-dasharray:none"
           inkscape:connector-curvature="0" />
        <path
           sodipodi:nodetypes="ccccc"
           id="path1443"
           d="m 156,26 10,0 0,-1 -10,0 0,1 z"
           style="fill:#000000;fill-opacity:1;fill-rule:nonzero;stroke:#ffffff;stroke-width:3.63598728;stroke-miterlimit:4;stroke-dasharray:none"
           inkscape:connector-curvature="0" />
        <path
           sodipodi:nodetypes="cccccc"
           id="path1449"
           d="m 149,38 24,0 0,-1 -12,-1 -12,1 0,1 z"
           style="display:inline;fill:#000000;fill-opacity:1;fill-rule:nonzero;stroke:#ffffff;stroke-width:3.63598728;stroke-miterlimit:4;stroke-dasharray:none"
           inkscape:connector-curvature="0" />
      </g>
      <g
         transform="translate(-3.75,-4)"
         style="display:inline;fill:#000000;stroke:#ffffff;stroke-width:3.63598728;stroke-miterlimit:4;stroke-dasharray:none"
         id="layer1-3"
         inkscape:label="mainsail">
        <path
           id="path1364"
           d="m 124,4 -1,0 -1,14 -1,89 3,0 0,-103 z"
           style="display:inline;fill:#000000;fill-opacity:1;fill-rule:nonzero;stroke:#ffffff;stroke-width:3.63598728;stroke-miterlimit:4;stroke-dasharray:none"
           sodipodi:nodetypes="cccccc"
           inkscape:connector-curvature="0" />
        <path
           sodipodi:nodetypes="cccccc"
           id="path1366"
           d="m 103,41 42,0 0,-1 -21,-1 -21,1 0,1 z"
           style="fill:#000000;fill-opacity:1;fill-rule:nonzero;stroke:#ffffff;stroke-width:3.63598728;stroke-miterlimit:4;stroke-dasharray:none"
           inkscape:connector-curvature="0" />
        <path
           sodipodi:nodetypes="cccccc"
           id="path1368"
           d="m 150,68 -52,0 0,-1 26,-1 26,1 0,1 z"
           style="fill:#000000;fill-opacity:1;fill-rule:nonzero;stroke:#ffffff;stroke-width:3.63598728;stroke-miterlimit:4;stroke-dasharray:none"
           inkscape:connector-curvature="0" />
        <path
           sodipodi:nodetypes="ccccc"
           id="path1372"
           d="m 117,7 14,0 0,-1 -14,0 0,1 z"
           style="fill:#000000;fill-opacity:1;fill-rule:nonzero;stroke:#ffffff;stroke-width:3.63598728;stroke-miterlimit:4;stroke-dasharray:none"
           inkscape:connector-curvature="0" />
        <path
           sodipodi:nodetypes="cccccc"
           id="path1378"
           d="m 109,21 30,0 0,-1 -15,-1 -15,1 0,1 z"
           style="display:inline;fill:#000000;fill-opacity:1;fill-rule:nonzero;stroke:#ffffff;stroke-width:3.63598728;stroke-miterlimit:4;stroke-dasharray:none"
           inkscape:connector-curvature="0" />
      </g>
      <g
         transform="translate(-3.75,-4)"
         style="display:inline;fill:#000000;stroke:#ffffff;stroke-width:3.63598728;stroke-miterlimit:4;stroke-dasharray:none"
         inkscape:label="forsail"
         id="layer4">
        <path
           id="path4228"
           d="m 86,14 -1,0 -1,14 -1,79 3,0 0,-93 z"
           style="display:inline;fill:#000000;fill-opacity:1;fill-rule:nonzero;stroke:#ffffff;stroke-width:3.63598728;stroke-miterlimit:4;stroke-dasharray:none"
           sodipodi:nodetypes="cccccc"
           inkscape:connector-curvature="0" />
        <path
           sodipodi:nodetypes="cccccc"
           id="path3544"
           d="m 67,47 38,0 0,-1 -19,-1 -19,1 0,1 z"
           style="fill:#000000;fill-opacity:1;fill-rule:nonzero;stroke:#ffffff;stroke-width:3.63598728;stroke-miterlimit:4;stroke-dasharray:none"
           inkscape:connector-curvature="0" />
        <path
           sodipodi:nodetypes="cccccc"
           id="path3546"
           d="m 109,72 -46,0 0,-1 23,-1 23,1 0,1 z"
           style="fill:#000000;fill-opacity:1;fill-rule:nonzero;stroke:#ffffff;stroke-width:3.63598728;stroke-miterlimit:4;stroke-dasharray:none"
           inkscape:connector-curvature="0" />
        <path
           sodipodi:nodetypes="ccccc"
           id="path2816"
           d="m 80,17 12,0 0,-1 -12,0 0,1 z"
           style="fill:#000000;fill-opacity:1;fill-rule:nonzero;stroke:#ffffff;stroke-width:3.63598728;stroke-miterlimit:4;stroke-dasharray:none"
           inkscape:connector-curvature="0" />
        <path
           sodipodi:nodetypes="cccccc"
           id="path1347"
           d="m 72,30 28,0 0,-1 -14,-1 -14,1 0,1 z"
           style="display:inline;fill:#000000;fill-opacity:1;fill-rule:nonzero;stroke:#ffffff;stroke-width:3.63598728;stroke-miterlimit:4;stroke-dasharray:none"
           inkscape:connector-curvature="0" />
      </g>
      <g
         transform="translate(-3.75,-4)"
         style="display:inline;fill:#000000;stroke:#ffffff;stroke-width:3.63598728;stroke-miterlimit:4;stroke-dasharray:none"
         inkscape:label="jib"
         id="layer2">
        <g
           style="fill:#000000;stroke:#ffffff;stroke-width:3.63598728;stroke-miterlimit:4;stroke-dasharray:none"
           id="g3093">
          <path
             inkscape:connector-curvature="0"
             sodipodi:nodetypes="ccccc"
             id="path2058"
             d="m 161,76 27,-11 19,32 -46,6 0,-27 z"
             style="display:inline;fill:#000000;fill-opacity:1;fill-rule:nonzero;stroke:#ffffff;stroke-width:3.63598728;stroke-miterlimit:4;stroke-dasharray:none" />
          <path
             inkscape:connector-curvature="0"
             style="display:inline;fill:#000000;fill-opacity:1;fill-rule:nonzero;stroke:#ffffff;stroke-width:3.63598728;stroke-miterlimit:4;stroke-dasharray:none"
             d="m 140,75 c 0,0 11,-2 21,-2 10,0 21,2 21,2 l -4,-22 -34,0 -4,22 z"
             id="path1445"
             sodipodi:nodetypes="czcccc" />
          <path
             inkscape:connector-curvature="0"
             style="display:inline;fill:#000000;fill-opacity:1;fill-rule:nonzero;stroke:#ffffff;stroke-width:3.63598728;stroke-miterlimit:4;stroke-dasharray:none"
             d="m 144,52 c 0,0 9,-2 17,-2 8,0 17,2 17,2 l -5,-14 -24,0 -5,14 z"
             id="path1447"
             sodipodi:nodetypes="czcccc" />
          <path
             inkscape:connector-curvature="0"
             style="display:inline;fill:#000000;fill-opacity:1;fill-rule:nonzero;stroke:#ffffff;stroke-width:3.63598728;stroke-miterlimit:4;stroke-dasharray:none"
             d="m 149,37 c 0,0 6,-2 12,-2 6,0 12,2 12,2 l -7,-11 -10,0 -7,11 z"
             id="path1451"
             sodipodi:nodetypes="czcccc" />
          <path
             inkscape:connector-curvature="0"
             sodipodi:nodetypes="ccczzzcc"
             id="path1453"
             d="m 140,76 42,0 0,2 c -5,0 -6,1 -11,1 -5,0 -6,-1 -10,-1 -4,0 -5,1 -11,1 -6,0 -7,-1 -10,-1 l 0,-2 z"
             style="display:inline;fill:#000000;fill-opacity:1;fill-rule:nonzero;stroke:#ffffff;stroke-width:3.63598728;stroke-miterlimit:4;stroke-dasharray:none" />
          <path
             inkscape:connector-curvature="0"
             style="display:inline;fill:#000000;fill-opacity:1;fill-rule:nonzero;stroke:#ffffff;stroke-width:3.63598728;stroke-miterlimit:4;stroke-dasharray:none"
             d="m 96,107 c 0,0 14,-3 28,-3 14,0 28,3 28,3 l -2,-39 -52,0 -2,39 z"
             id="path1370"
             sodipodi:nodetypes="czcccc" />
          <path
             inkscape:connector-curvature="0"
             style="display:inline;fill:#000000;fill-opacity:1;fill-rule:nonzero;stroke:#ffffff;stroke-width:3.63598728;stroke-miterlimit:4;stroke-dasharray:none"
             d="m 98,67 c 0,0 13,-3 26,-3 13,0 26,3 26,3 l -5,-26 -42,0 -5,26 z"
             id="path1374"
             sodipodi:nodetypes="czcccc" />
          <path
             inkscape:connector-curvature="0"
             style="display:inline;fill:#000000;fill-opacity:1;fill-rule:nonzero;stroke:#ffffff;stroke-width:3.63598728;stroke-miterlimit:4;stroke-dasharray:none"
             d="m 103,40 c 0,0 11,-2 21,-2 10,0 21,2 21,2 l -6,-19 -30,0 -6,19 z"
             id="path1376"
             sodipodi:nodetypes="czcccc" />
          <path
             inkscape:connector-curvature="0"
             style="display:inline;fill:#000000;fill-opacity:1;fill-rule:nonzero;stroke:#ffffff;stroke-width:3.63598728;stroke-miterlimit:4;stroke-dasharray:none"
             d="m 109,20 c 0,0 7,-2 15,-2 8,0 15,2 15,2 l -8,-13 -14,0 -8,13 z"
             id="path1380"
             sodipodi:nodetypes="czcccc" />
          <path
             inkscape:connector-curvature="0"
             style="display:inline;fill:#000000;fill-opacity:1;fill-rule:nonzero;stroke:#ffffff;stroke-width:3.63598728;stroke-miterlimit:4;stroke-dasharray:none"
             d="m 61,107 c 0,0 13,-3 25,-3 12,0 25,3 25,3 l -2,-35 -46,0 -2,35 z"
             id="path2060"
             sodipodi:nodetypes="czcccc" />
          <path
             inkscape:connector-curvature="0"
             style="display:inline;fill:#000000;fill-opacity:1;fill-rule:nonzero;stroke:#ffffff;stroke-width:3.63598728;stroke-miterlimit:4;stroke-dasharray:none"
             d="m 63,71 c 0,0 11,-2 23,-2 12,0 23,2 23,2 l -4,-24 -38,0 -4,24 z"
             id="path1343"
             sodipodi:nodetypes="czcccc" />
          <path
             inkscape:connector-curvature="0"
             style="display:inline;fill:#000000;fill-opacity:1;fill-rule:nonzero;stroke:#ffffff;stroke-width:3.63598728;stroke-miterlimit:4;stroke-dasharray:none"
             d="m 67,46 c 0,0 9.6,-2 19,-2 9,0 19,2 19,2 l -5,-16 -28,0 -5,16 z"
             id="path1345"
             sodipodi:nodetypes="czcccc" />
          <path
             inkscape:connector-curvature="0"
             style="display:inline;fill:#000000;fill-opacity:1;fill-rule:nonzero;stroke:#ffffff;stroke-width:3.63598728;stroke-miterlimit:4;stroke-dasharray:none"
             d="m 72,29 c 0,0 6,-2 14,-2 8,0 14,2 14,2 L 92,17 80,17 72,29 Z"
             id="path1349"
             sodipodi:nodetypes="czcccc" />
          <path
             inkscape:connector-curvature="0"
             style="display:inline;fill:#000000;fill-opacity:1;fill-rule:nonzero;stroke:#ffffff;stroke-width:3.63598728;stroke-miterlimit:4;stroke-dasharray:none"
             d="m 79,103 c -17,0 -34,4 -34,4 l 39,-62 -5,58 z"
             id="path1463"
             sodipodi:nodetypes="cccc" />
          <path
             inkscape:connector-curvature="0"
             style="display:inline;fill:#000000;fill-opacity:1;fill-rule:nonzero;stroke:#ffffff;stroke-width:3.63598728;stroke-miterlimit:4;stroke-dasharray:none"
             d="m 63,100 c -16,0 -35,2 -35,2 L 84,28 63,100 Z"
             id="path1457"
             sodipodi:nodetypes="cccc" />
          <path
             inkscape:connector-curvature="0"
             style="display:inline;fill:#000000;fill-opacity:1;fill-rule:nonzero;stroke:#ffffff;stroke-width:3.63598728;stroke-miterlimit:4;stroke-dasharray:none"
             d="M 34,97 C 34,97 19,90 4,90 L 85,16 34,97 Z"
             id="path5140"
             sodipodi:nodetypes="cccc" />
        </g>
      </g>
    </g>
    <g
       id="g3543-5"
       transform="matrix(-0.1215167,0,0,-0.12605041,37.260257,975.13306)"
       style="fill:#000000;stroke:#ffffff;stroke-width:3.63598728;stroke-miterlimit:4;stroke-dasharray:none">
      <g
         transform="translate(-3.75,-4)"
         style="display:inline;fill:#000000;stroke:#ffffff;stroke-width:3.63598728;stroke-miterlimit:4;stroke-dasharray:none"
         inkscape:label="hull"
         id="layer3-6">
        <path
           inkscape:connector-curvature="0"
           sodipodi:nodetypes="cccccccc"
           id="path2765-2"
           d="m 36,123 147,0 c 8,-8 8,-8 8,-16 l -151,0 c -2,0 -2,0 -4,-1 L 4,90 4,91 c 32,17 32,24 32,32 z"
           style="fill:#000000;fill-opacity:1;fill-rule:nonzero;stroke:#ffffff;stroke-width:3.63598728;stroke-miterlimit:4;stroke-dasharray:none" />
      </g>
      <g
         transform="translate(-3.75,-4)"
         style="display:inline;fill:#000000;stroke:#ffffff;stroke-width:3.63598728;stroke-miterlimit:4;stroke-dasharray:none"
         inkscape:label="spanker"
         id="layer5-9">
        <path
           id="path3576-1"
           d="m 161,105 46,-7 0,-1 -46,6 0,2 z"
           style="fill:#000000;fill-opacity:1;fill-rule:nonzero;stroke:#ffffff;stroke-width:3.63598728;stroke-miterlimit:4;stroke-dasharray:none"
           sodipodi:nodetypes="ccccc"
           inkscape:connector-curvature="0" />
        <path
           id="path4306-2"
           d="m 161,76 27,-11 0,-1 -27,10 0,2 z"
           style="fill:#000000;fill-opacity:1;fill-rule:nonzero;stroke:#ffffff;stroke-width:3.63598728;stroke-miterlimit:4;stroke-dasharray:none"
           sodipodi:nodetypes="ccccc"
           inkscape:connector-curvature="0" />
      </g>
      <g
         transform="translate(-3.75,-4)"
         style="display:inline;fill:#000000;stroke:#ffffff;stroke-width:3.63598728;stroke-miterlimit:4;stroke-dasharray:none"
         inkscape:label="mizzen"
         id="layer6-7">
        <path
           id="path1435-0"
           d="m 161,24 -1,0 -1,12 -1,71 3,0 0,-83 z"
           style="display:inline;fill:#000000;fill-opacity:1;fill-rule:nonzero;stroke:#ffffff;stroke-width:3.63598728;stroke-miterlimit:4;stroke-dasharray:none"
           sodipodi:nodetypes="cccccc"
           inkscape:connector-curvature="0" />
        <path
           sodipodi:nodetypes="cccccc"
           id="path1437-9"
           d="m 144,53 34,0 0,-1 -17,-1 -17,1 0,1 z"
           style="fill:#000000;fill-opacity:1;fill-rule:nonzero;stroke:#ffffff;stroke-width:3.63598728;stroke-miterlimit:4;stroke-dasharray:none"
           inkscape:connector-curvature="0" />
        <path
           sodipodi:nodetypes="cccccc"
           id="path1439-3"
           d="m 182,76 -42,0 0,-1 21,-1 21,1 0,1 z"
           style="fill:#000000;fill-opacity:1;fill-rule:nonzero;stroke:#ffffff;stroke-width:3.63598728;stroke-miterlimit:4;stroke-dasharray:none"
           inkscape:connector-curvature="0" />
        <path
           sodipodi:nodetypes="ccccc"
           id="path1443-6"
           d="m 156,26 10,0 0,-1 -10,0 0,1 z"
           style="fill:#000000;fill-opacity:1;fill-rule:nonzero;stroke:#ffffff;stroke-width:3.63598728;stroke-miterlimit:4;stroke-dasharray:none"
           inkscape:connector-curvature="0" />
        <path
           sodipodi:nodetypes="cccccc"
           id="path1449-0"
           d="m 149,38 24,0 0,-1 -12,-1 -12,1 0,1 z"
           style="display:inline;fill:#000000;fill-opacity:1;fill-rule:nonzero;stroke:#ffffff;stroke-width:3.63598728;stroke-miterlimit:4;stroke-dasharray:none"
           inkscape:connector-curvature="0" />
      </g>
      <g
         transform="translate(-3.75,-4)"
         style="display:inline;fill:#000000;stroke:#ffffff;stroke-width:3.63598728;stroke-miterlimit:4;stroke-dasharray:none"
         id="layer1-3-6"
         inkscape:label="mainsail">
        <path
           id="path1364-2"
           d="m 124,4 -1,0 -1,14 -1,89 3,0 0,-103 z"
           style="display:inline;fill:#000000;fill-opacity:1;fill-rule:nonzero;stroke:#ffffff;stroke-width:3.63598728;stroke-miterlimit:4;stroke-dasharray:none"
           sodipodi:nodetypes="cccccc"
           inkscape:connector-curvature="0" />
        <path
           sodipodi:nodetypes="cccccc"
           id="path1366-6"
           d="m 103,41 42,0 0,-1 -21,-1 -21,1 0,1 z"
           style="fill:#000000;fill-opacity:1;fill-rule:nonzero;stroke:#ffffff;stroke-width:3.63598728;stroke-miterlimit:4;stroke-dasharray:none"
           inkscape:connector-curvature="0" />
        <path
           sodipodi:nodetypes="cccccc"
           id="path1368-1"
           d="m 150,68 -52,0 0,-1 26,-1 26,1 0,1 z"
           style="fill:#000000;fill-opacity:1;fill-rule:nonzero;stroke:#ffffff;stroke-width:3.63598728;stroke-miterlimit:4;stroke-dasharray:none"
           inkscape:connector-curvature="0" />
        <path
           sodipodi:nodetypes="ccccc"
           id="path1372-8"
           d="m 117,7 14,0 0,-1 -14,0 0,1 z"
           style="fill:#000000;fill-opacity:1;fill-rule:nonzero;stroke:#ffffff;stroke-width:3.63598728;stroke-miterlimit:4;stroke-dasharray:none"
           inkscape:connector-curvature="0" />
        <path
           sodipodi:nodetypes="cccccc"
           id="path1378-7"
           d="m 109,21 30,0 0,-1 -15,-1 -15,1 0,1 z"
           style="display:inline;fill:#000000;fill-opacity:1;fill-rule:nonzero;stroke:#ffffff;stroke-width:3.63598728;stroke-miterlimit:4;stroke-dasharray:none"
           inkscape:connector-curvature="0" />
      </g>
      <g
         transform="translate(-3.75,-4)"
         style="display:inline;fill:#000000;stroke:#ffffff;stroke-width:3.63598728;stroke-miterlimit:4;stroke-dasharray:none"
         inkscape:label="forsail"
         id="layer4-9">
        <path
           id="path4228-2"
           d="m 86,14 -1,0 -1,14 -1,79 3,0 0,-93 z"
           style="display:inline;fill:#000000;fill-opacity:1;fill-rule:nonzero;stroke:#ffffff;stroke-width:3.63598728;stroke-miterlimit:4;stroke-dasharray:none"
           sodipodi:nodetypes="cccccc"
           inkscape:connector-curvature="0" />
        <path
           sodipodi:nodetypes="cccccc"
           id="path3544-0"
           d="m 67,47 38,0 0,-1 -19,-1 -19,1 0,1 z"
           style="fill:#000000;fill-opacity:1;fill-rule:nonzero;stroke:#ffffff;stroke-width:3.63598728;stroke-miterlimit:4;stroke-dasharray:none"
           inkscape:connector-curvature="0" />
        <path
           sodipodi:nodetypes="cccccc"
           id="path3546-2"
           d="m 109,72 -46,0 0,-1 23,-1 23,1 0,1 z"
           style="fill:#000000;fill-opacity:1;fill-rule:nonzero;stroke:#ffffff;stroke-width:3.63598728;stroke-miterlimit:4;stroke-dasharray:none"
           inkscape:connector-curvature="0" />
        <path
           sodipodi:nodetypes="ccccc"
           id="path2816-3"
           d="m 80,17 12,0 0,-1 -12,0 0,1 z"
           style="fill:#000000;fill-opacity:1;fill-rule:nonzero;stroke:#ffffff;stroke-width:3.63598728;stroke-miterlimit:4;stroke-dasharray:none"
           inkscape:connector-curvature="0" />
        <path
           sodipodi:nodetypes="cccccc"
           id="path1347-7"
           d="m 72,30 28,0 0,-1 -14,-1 -14,1 0,1 z"
           style="display:inline;fill:#000000;fill-opacity:1;fill-rule:nonzero;stroke:#ffffff;stroke-width:3.63598728;stroke-miterlimit:4;stroke-dasharray:none"
           inkscape:connector-curvature="0" />
      </g>
      <g
         transform="translate(-3.75,-4)"
         style="display:inline;fill:#000000;stroke:#ffffff;stroke-width:3.63598728;stroke-miterlimit:4;stroke-dasharray:none"
         inkscape:label="jib"
         id="layer2-5">
        <g
           style="fill:#000000;stroke:#ffffff;stroke-width:3.63598728;stroke-miterlimit:4;stroke-dasharray:none"
           id="g3093-9">
          <path
             inkscape:connector-curvature="0"
             sodipodi:nodetypes="ccccc"
             id="path2058-2"
             d="m 161,76 27,-11 19,32 -46,6 0,-27 z"
             style="display:inline;fill:#000000;fill-opacity:1;fill-rule:nonzero;stroke:#ffffff;stroke-width:3.63598728;stroke-miterlimit:4;stroke-dasharray:none" />
          <path
             inkscape:connector-curvature="0"
             style="display:inline;fill:#000000;fill-opacity:1;fill-rule:nonzero;stroke:#ffffff;stroke-width:3.63598728;stroke-miterlimit:4;stroke-dasharray:none"
             d="m 140,75 c 0,0 11,-2 21,-2 10,0 21,2 21,2 l -4,-22 -34,0 -4,22 z"
             id="path1445-2"
             sodipodi:nodetypes="czcccc" />
          <path
             inkscape:connector-curvature="0"
             style="display:inline;fill:#000000;fill-opacity:1;fill-rule:nonzero;stroke:#ffffff;stroke-width:3.63598728;stroke-miterlimit:4;stroke-dasharray:none"
             d="m 144,52 c 0,0 9,-2 17,-2 8,0 17,2 17,2 l -5,-14 -24,0 -5,14 z"
             id="path1447-8"
             sodipodi:nodetypes="czcccc" />
          <path
             inkscape:connector-curvature="0"
             style="display:inline;fill:#000000;fill-opacity:1;fill-rule:nonzero;stroke:#ffffff;stroke-width:3.63598728;stroke-miterlimit:4;stroke-dasharray:none"
             d="m 149,37 c 0,0 6,-2 12,-2 6,0 12,2 12,2 l -7,-11 -10,0 -7,11 z"
             id="path1451-9"
             sodipodi:nodetypes="czcccc" />
          <path
             inkscape:connector-curvature="0"
             sodipodi:nodetypes="ccczzzcc"
             id="path1453-7"
             d="m 140,76 42,0 0,2 c -5,0 -6,1 -11,1 -5,0 -6,-1 -10,-1 -4,0 -5,1 -11,1 -6,0 -7,-1 -10,-1 l 0,-2 z"
             style="display:inline;fill:#000000;fill-opacity:1;fill-rule:nonzero;stroke:#ffffff;stroke-width:3.63598728;stroke-miterlimit:4;stroke-dasharray:none" />
          <path
             inkscape:connector-curvature="0"
             style="display:inline;fill:#000000;fill-opacity:1;fill-rule:nonzero;stroke:#ffffff;stroke-width:3.63598728;stroke-miterlimit:4;stroke-dasharray:none"
             d="m 96,107 c 0,0 14,-3 28,-3 14,0 28,3 28,3 l -2,-39 -52,0 -2,39 z"
             id="path1370-3"
             sodipodi:nodetypes="czcccc" />
          <path
             inkscape:connector-curvature="0"
             style="display:inline;fill:#000000;fill-opacity:1;fill-rule:nonzero;stroke:#ffffff;stroke-width:3.63598728;stroke-miterlimit:4;stroke-dasharray:none"
             d="m 98,67 c 0,0 13,-3 26,-3 13,0 26,3 26,3 l -5,-26 -42,0 -5,26 z"
             id="path1374-6"
             sodipodi:nodetypes="czcccc" />
          <path
             inkscape:connector-curvature="0"
             style="display:inline;fill:#000000;fill-opacity:1;fill-rule:nonzero;stroke:#ffffff;stroke-width:3.63598728;stroke-miterlimit:4;stroke-dasharray:none"
             d="m 103,40 c 0,0 11,-2 21,-2 10,0 21,2 21,2 l -6,-19 -30,0 -6,19 z"
             id="path1376-1"
             sodipodi:nodetypes="czcccc" />
          <path
             inkscape:connector-curvature="0"
             style="display:inline;fill:#000000;fill-opacity:1;fill-rule:nonzero;stroke:#ffffff;stroke-width:3.63598728;stroke-miterlimit:4;stroke-dasharray:none"
             d="m 109,20 c 0,0 7,-2 15,-2 8,0 15,2 15,2 l -8,-13 -14,0 -8,13 z"
             id="path1380-2"
             sodipodi:nodetypes="czcccc" />
          <path
             inkscape:connector-curvature="0"
             style="display:inline;fill:#000000;fill-opacity:1;fill-rule:nonzero;stroke:#ffffff;stroke-width:3.63598728;stroke-miterlimit:4;stroke-dasharray:none"
             d="m 61,107 c 0,0 13,-3 25,-3 12,0 25,3 25,3 l -2,-35 -46,0 -2,35 z"
             id="path2060-9"
             sodipodi:nodetypes="czcccc" />
          <path
             inkscape:connector-curvature="0"
             style="display:inline;fill:#000000;fill-opacity:1;fill-rule:nonzero;stroke:#ffffff;stroke-width:3.63598728;stroke-miterlimit:4;stroke-dasharray:none"
             d="m 63,71 c 0,0 11,-2 23,-2 12,0 23,2 23,2 l -4,-24 -38,0 -4,24 z"
             id="path1343-3"
             sodipodi:nodetypes="czcccc" />
          <path
             inkscape:connector-curvature="0"
             style="display:inline;fill:#000000;fill-opacity:1;fill-rule:nonzero;stroke:#ffffff;stroke-width:3.63598728;stroke-miterlimit:4;stroke-dasharray:none"
             d="m 67,46 c 0,0 9.6,-2 19,-2 9,0 19,2 19,2 l -5,-16 -28,0 -5,16 z"
             id="path1345-1"
             sodipodi:nodetypes="czcccc" />
          <path
             inkscape:connector-curvature="0"
             style="display:inline;fill:#000000;fill-opacity:1;fill-rule:nonzero;stroke:#ffffff;stroke-width:3.63598728;stroke-miterlimit:4;stroke-dasharray:none"
             d="m 72,29 c 0,0 6,-2 14,-2 8,0 14,2 14,2 L 92,17 80,17 72,29 Z"
             id="path1349-9"
             sodipodi:nodetypes="czcccc" />
          <path
             inkscape:connector-curvature="0"
             style="display:inline;fill:#000000;fill-opacity:1;fill-rule:nonzero;stroke:#ffffff;stroke-width:3.63598728;stroke-miterlimit:4;stroke-dasharray:none"
             d="m 79,103 c -17,0 -34,4 -34,4 l 39,-62 -5,58 z"
             id="path1463-4"
             sodipodi:nodetypes="cccc" />
          <path
             inkscape:connector-curvature="0"
             style="display:inline;fill:#000000;fill-opacity:1;fill-rule:nonzero;stroke:#ffffff;stroke-width:3.63598728;stroke-miterlimit:4;stroke-dasharray:none"
             d="m 63,100 c -16,0 -35,2 -35,2 L 84,28 63,100 Z"
             id="path1457-7"
             sodipodi:nodetypes="cccc" />
          <path
             inkscape:connector-curvature="0"
             style="display:inline;fill:#000000;fill-opacity:1;fill-rule:nonzero;stroke:#ffffff;stroke-width:3.63598728;stroke-miterlimit:4;stroke-dasharray:none"
             d="M 34,97 C 34,97 19,90 4,90 L 85,16 34,97 Z"
             id="path5140-8"
             sodipodi:nodetypes="cccc" />
        </g>
      </g>
    </g>
    <g
       id="g3543-4"
       transform="matrix(0,0.1215167,-0.12605041,0,-27.770841,1015.1019)"
       style="fill:#000000;stroke:#ffffff;stroke-width:3.63598728;stroke-miterlimit:4;stroke-dasharray:none">
      <g
         transform="translate(-3.75,-4)"
         style="display:inline;fill:#000000;stroke:#ffffff;stroke-width:3.63598728;stroke-miterlimit:4;stroke-dasharray:none"
         inkscape:label="hull"
         id="layer3-5">
        <path
           inkscape:connector-curvature="0"
           sodipodi:nodetypes="cccccccc"
           id="path2765-0"
           d="m 36,123 147,0 c 8,-8 8,-8 8,-16 l -151,0 c -2,0 -2,0 -4,-1 L 4,90 4,91 c 32,17 32,24 32,32 z"
           style="fill:#000000;fill-opacity:1;fill-rule:nonzero;stroke:#ffffff;stroke-width:3.63598728;stroke-miterlimit:4;stroke-dasharray:none" />
      </g>
      <g
         transform="translate(-3.75,-4)"
         style="display:inline;fill:#000000;stroke:#ffffff;stroke-width:3.63598728;stroke-miterlimit:4;stroke-dasharray:none"
         inkscape:label="spanker"
         id="layer5-3">
        <path
           id="path3576-6"
           d="m 161,105 46,-7 0,-1 -46,6 0,2 z"
           style="fill:#000000;fill-opacity:1;fill-rule:nonzero;stroke:#ffffff;stroke-width:3.63598728;stroke-miterlimit:4;stroke-dasharray:none"
           sodipodi:nodetypes="ccccc"
           inkscape:connector-curvature="0" />
        <path
           id="path4306-1"
           d="m 161,76 27,-11 0,-1 -27,10 0,2 z"
           style="fill:#000000;fill-opacity:1;fill-rule:nonzero;stroke:#ffffff;stroke-width:3.63598728;stroke-miterlimit:4;stroke-dasharray:none"
           sodipodi:nodetypes="ccccc"
           inkscape:connector-curvature="0" />
      </g>
      <g
         transform="translate(-3.75,-4)"
         style="display:inline;fill:#000000;stroke:#ffffff;stroke-width:3.63598728;stroke-miterlimit:4;stroke-dasharray:none"
         inkscape:label="mizzen"
         id="layer6-0">
        <path
           id="path1435-6"
           d="m 161,24 -1,0 -1,12 -1,71 3,0 0,-83 z"
           style="display:inline;fill:#000000;fill-opacity:1;fill-rule:nonzero;stroke:#ffffff;stroke-width:3.63598728;stroke-miterlimit:4;stroke-dasharray:none"
           sodipodi:nodetypes="cccccc"
           inkscape:connector-curvature="0" />
        <path
           sodipodi:nodetypes="cccccc"
           id="path1437-3"
           d="m 144,53 34,0 0,-1 -17,-1 -17,1 0,1 z"
           style="fill:#000000;fill-opacity:1;fill-rule:nonzero;stroke:#ffffff;stroke-width:3.63598728;stroke-miterlimit:4;stroke-dasharray:none"
           inkscape:connector-curvature="0" />
        <path
           sodipodi:nodetypes="cccccc"
           id="path1439-2"
           d="m 182,76 -42,0 0,-1 21,-1 21,1 0,1 z"
           style="fill:#000000;fill-opacity:1;fill-rule:nonzero;stroke:#ffffff;stroke-width:3.63598728;stroke-miterlimit:4;stroke-dasharray:none"
           inkscape:connector-curvature="0" />
        <path
           sodipodi:nodetypes="ccccc"
           id="path1443-0"
           d="m 156,26 10,0 0,-1 -10,0 0,1 z"
           style="fill:#000000;fill-opacity:1;fill-rule:nonzero;stroke:#ffffff;stroke-width:3.63598728;stroke-miterlimit:4;stroke-dasharray:none"
           inkscape:connector-curvature="0" />
        <path
           sodipodi:nodetypes="cccccc"
           id="path1449-6"
           d="m 149,38 24,0 0,-1 -12,-1 -12,1 0,1 z"
           style="display:inline;fill:#000000;fill-opacity:1;fill-rule:nonzero;stroke:#ffffff;stroke-width:3.63598728;stroke-miterlimit:4;stroke-dasharray:none"
           inkscape:connector-curvature="0" />
      </g>
      <g
         transform="translate(-3.75,-4)"
         style="display:inline;fill:#000000;stroke:#ffffff;stroke-width:3.63598728;stroke-miterlimit:4;stroke-dasharray:none"
         id="layer1-3-1"
         inkscape:label="mainsail">
        <path
           id="path1364-5"
           d="m 124,4 -1,0 -1,14 -1,89 3,0 0,-103 z"
           style="display:inline;fill:#000000;fill-opacity:1;fill-rule:nonzero;stroke:#ffffff;stroke-width:3.63598728;stroke-miterlimit:4;stroke-dasharray:none"
           sodipodi:nodetypes="cccccc"
           inkscape:connector-curvature="0" />
        <path
           sodipodi:nodetypes="cccccc"
           id="path1366-5"
           d="m 103,41 42,0 0,-1 -21,-1 -21,1 0,1 z"
           style="fill:#000000;fill-opacity:1;fill-rule:nonzero;stroke:#ffffff;stroke-width:3.63598728;stroke-miterlimit:4;stroke-dasharray:none"
           inkscape:connector-curvature="0" />
        <path
           sodipodi:nodetypes="cccccc"
           id="path1368-4"
           d="m 150,68 -52,0 0,-1 26,-1 26,1 0,1 z"
           style="fill:#000000;fill-opacity:1;fill-rule:nonzero;stroke:#ffffff;stroke-width:3.63598728;stroke-miterlimit:4;stroke-dasharray:none"
           inkscape:connector-curvature="0" />
        <path
           sodipodi:nodetypes="ccccc"
           id="path1372-7"
           d="m 117,7 14,0 0,-1 -14,0 0,1 z"
           style="fill:#000000;fill-opacity:1;fill-rule:nonzero;stroke:#ffffff;stroke-width:3.63598728;stroke-miterlimit:4;stroke-dasharray:none"
           inkscape:connector-curvature="0" />
        <path
           sodipodi:nodetypes="cccccc"
           id="path1378-6"
           d="m 109,21 30,0 0,-1 -15,-1 -15,1 0,1 z"
           style="display:inline;fill:#000000;fill-opacity:1;fill-rule:nonzero;stroke:#ffffff;stroke-width:3.63598728;stroke-miterlimit:4;stroke-dasharray:none"
           inkscape:connector-curvature="0" />
      </g>
      <g
         transform="translate(-3.75,-4)"
         style="display:inline;fill:#000000;stroke:#ffffff;stroke-width:3.63598728;stroke-miterlimit:4;stroke-dasharray:none"
         inkscape:label="forsail"
         id="layer4-5">
        <path
           id="path4228-6"
           d="m 86,14 -1,0 -1,14 -1,79 3,0 0,-93 z"
           style="display:inline;fill:#000000;fill-opacity:1;fill-rule:nonzero;stroke:#ffffff;stroke-width:3.63598728;stroke-miterlimit:4;stroke-dasharray:none"
           sodipodi:nodetypes="cccccc"
           inkscape:connector-curvature="0" />
        <path
           sodipodi:nodetypes="cccccc"
           id="path3544-9"
           d="m 67,47 38,0 0,-1 -19,-1 -19,1 0,1 z"
           style="fill:#000000;fill-opacity:1;fill-rule:nonzero;stroke:#ffffff;stroke-width:3.63598728;stroke-miterlimit:4;stroke-dasharray:none"
           inkscape:connector-curvature="0" />
        <path
           sodipodi:nodetypes="cccccc"
           id="path3546-3"
           d="m 109,72 -46,0 0,-1 23,-1 23,1 0,1 z"
           style="fill:#000000;fill-opacity:1;fill-rule:nonzero;stroke:#ffffff;stroke-width:3.63598728;stroke-miterlimit:4;stroke-dasharray:none"
           inkscape:connector-curvature="0" />
        <path
           sodipodi:nodetypes="ccccc"
           id="path2816-7"
           d="m 80,17 12,0 0,-1 -12,0 0,1 z"
           style="fill:#000000;fill-opacity:1;fill-rule:nonzero;stroke:#ffffff;stroke-width:3.63598728;stroke-miterlimit:4;stroke-dasharray:none"
           inkscape:connector-curvature="0" />
        <path
           sodipodi:nodetypes="cccccc"
           id="path1347-4"
           d="m 72,30 28,0 0,-1 -14,-1 -14,1 0,1 z"
           style="display:inline;fill:#000000;fill-opacity:1;fill-rule:nonzero;stroke:#ffffff;stroke-width:3.63598728;stroke-miterlimit:4;stroke-dasharray:none"
           inkscape:connector-curvature="0" />
      </g>
      <g
         transform="translate(-3.75,-4)"
         style="display:inline;fill:#000000;stroke:#ffffff;stroke-width:3.63598728;stroke-miterlimit:4;stroke-dasharray:none"
         inkscape:label="jib"
         id="layer2-52">
        <g
           style="fill:#000000;stroke:#ffffff;stroke-width:3.63598728;stroke-miterlimit:4;stroke-dasharray:none"
           id="g3093-5">
          <path
             inkscape:connector-curvature="0"
             sodipodi:nodetypes="ccccc"
             id="path2058-4"
             d="m 161,76 27,-11 19,32 -46,6 0,-27 z"
             style="display:inline;fill:#000000;fill-opacity:1;fill-rule:nonzero;stroke:#ffffff;stroke-width:3.63598728;stroke-miterlimit:4;stroke-dasharray:none" />
          <path
             inkscape:connector-curvature="0"
             style="display:inline;fill:#000000;fill-opacity:1;fill-rule:nonzero;stroke:#ffffff;stroke-width:3.63598728;stroke-miterlimit:4;stroke-dasharray:none"
             d="m 140,75 c 0,0 11,-2 21,-2 10,0 21,2 21,2 l -4,-22 -34,0 -4,22 z"
             id="path1445-7"
             sodipodi:nodetypes="czcccc" />
          <path
             inkscape:connector-curvature="0"
             style="display:inline;fill:#000000;fill-opacity:1;fill-rule:nonzero;stroke:#ffffff;stroke-width:3.63598728;stroke-miterlimit:4;stroke-dasharray:none"
             d="m 144,52 c 0,0 9,-2 17,-2 8,0 17,2 17,2 l -5,-14 -24,0 -5,14 z"
             id="path1447-4"
             sodipodi:nodetypes="czcccc" />
          <path
             inkscape:connector-curvature="0"
             style="display:inline;fill:#000000;fill-opacity:1;fill-rule:nonzero;stroke:#ffffff;stroke-width:3.63598728;stroke-miterlimit:4;stroke-dasharray:none"
             d="m 149,37 c 0,0 6,-2 12,-2 6,0 12,2 12,2 l -7,-11 -10,0 -7,11 z"
             id="path1451-4"
             sodipodi:nodetypes="czcccc" />
          <path
             inkscape:connector-curvature="0"
             sodipodi:nodetypes="ccczzzcc"
             id="path1453-3"
             d="m 140,76 42,0 0,2 c -5,0 -6,1 -11,1 -5,0 -6,-1 -10,-1 -4,0 -5,1 -11,1 -6,0 -7,-1 -10,-1 l 0,-2 z"
             style="display:inline;fill:#000000;fill-opacity:1;fill-rule:nonzero;stroke:#ffffff;stroke-width:3.63598728;stroke-miterlimit:4;stroke-dasharray:none" />
          <path
             inkscape:connector-curvature="0"
             style="display:inline;fill:#000000;fill-opacity:1;fill-rule:nonzero;stroke:#ffffff;stroke-width:3.63598728;stroke-miterlimit:4;stroke-dasharray:none"
             d="m 96,107 c 0,0 14,-3 28,-3 14,0 28,3 28,3 l -2,-39 -52,0 -2,39 z"
             id="path1370-0"
             sodipodi:nodetypes="czcccc" />
          <path
             inkscape:connector-curvature="0"
             style="display:inline;fill:#000000;fill-opacity:1;fill-rule:nonzero;stroke:#ffffff;stroke-width:3.63598728;stroke-miterlimit:4;stroke-dasharray:none"
             d="m 98,67 c 0,0 13,-3 26,-3 13,0 26,3 26,3 l -5,-26 -42,0 -5,26 z"
             id="path1374-7"
             sodipodi:nodetypes="czcccc" />
          <path
             inkscape:connector-curvature="0"
             style="display:inline;fill:#000000;fill-opacity:1;fill-rule:nonzero;stroke:#ffffff;stroke-width:3.63598728;stroke-miterlimit:4;stroke-dasharray:none"
             d="m 103,40 c 0,0 11,-2 21,-2 10,0 21,2 21,2 l -6,-19 -30,0 -6,19 z"
             id="path1376-8"
             sodipodi:nodetypes="czcccc" />
          <path
             inkscape:connector-curvature="0"
             style="display:inline;fill:#000000;fill-opacity:1;fill-rule:nonzero;stroke:#ffffff;stroke-width:3.63598728;stroke-miterlimit:4;stroke-dasharray:none"
             d="m 109,20 c 0,0 7,-2 15,-2 8,0 15,2 15,2 l -8,-13 -14,0 -8,13 z"
             id="path1380-6"
             sodipodi:nodetypes="czcccc" />
          <path
             inkscape:connector-curvature="0"
             style="display:inline;fill:#000000;fill-opacity:1;fill-rule:nonzero;stroke:#ffffff;stroke-width:3.63598728;stroke-miterlimit:4;stroke-dasharray:none"
             d="m 61,107 c 0,0 13,-3 25,-3 12,0 25,3 25,3 l -2,-35 -46,0 -2,35 z"
             id="path2060-8"
             sodipodi:nodetypes="czcccc" />
          <path
             inkscape:connector-curvature="0"
             style="display:inline;fill:#000000;fill-opacity:1;fill-rule:nonzero;stroke:#ffffff;stroke-width:3.63598728;stroke-miterlimit:4;stroke-dasharray:none"
             d="m 63,71 c 0,0 11,-2 23,-2 12,0 23,2 23,2 l -4,-24 -38,0 -4,24 z"
             id="path1343-8"
             sodipodi:nodetypes="czcccc" />
          <path
             inkscape:connector-curvature="0"
             style="display:inline;fill:#000000;fill-opacity:1;fill-rule:nonzero;stroke:#ffffff;stroke-width:3.63598728;stroke-miterlimit:4;stroke-dasharray:none"
             d="m 67,46 c 0,0 9.6,-2 19,-2 9,0 19,2 19,2 l -5,-16 -28,0 -5,16 z"
             id="path1345-4"
             sodipodi:nodetypes="czcccc" />
          <path
             inkscape:connector-curvature="0"
             style="display:inline;fill:#000000;fill-opacity:1;fill-rule:nonzero;stroke:#ffffff;stroke-width:3.63598728;stroke-miterlimit:4;stroke-dasharray:none"
             d="m 72,29 c 0,0 6,-2 14,-2 8,0 14,2 14,2 L 92,17 80,17 72,29 Z"
             id="path1349-3"
             sodipodi:nodetypes="czcccc" />
          <path
             inkscape:connector-curvature="0"
             style="display:inline;fill:#000000;fill-opacity:1;fill-rule:nonzero;stroke:#ffffff;stroke-width:3.63598728;stroke-miterlimit:4;stroke-dasharray:none"
             d="m 79,103 c -17,0 -34,4 -34,4 l 39,-62 -5,58 z"
             id="path1463-1"
             sodipodi:nodetypes="cccc" />
          <path
             inkscape:connector-curvature="0"
             style="display:inline;fill:#000000;fill-opacity:1;fill-rule:nonzero;stroke:#ffffff;stroke-width:3.63598728;stroke-miterlimit:4;stroke-dasharray:none"
             d="m 63,100 c -16,0 -35,2 -35,2 L 84,28 63,100 Z"
             id="path1457-4"
             sodipodi:nodetypes="cccc" />
          <path
             inkscape:connector-curvature="0"
             style="display:inline;fill:#000000;fill-opacity:1;fill-rule:nonzero;stroke:#ffffff;stroke-width:3.63598728;stroke-miterlimit:4;stroke-dasharray:none"
             d="M 34,97 C 34,97 19,90 4,90 L 85,16 34,97 Z"
             id="path5140-9"
             sodipodi:nodetypes="cccc" />
        </g>
      </g>
    </g>
    <g
       id="g3543-4-2"
       transform="matrix(0,-0.1215167,-0.12605041,0,92.229144,1039.6225)"
       style="fill:#000000;stroke:#ffffff;stroke-width:3.63598728;stroke-miterlimit:4;stroke-dasharray:none">
      <g
         transform="translate(-3.75,-4)"
         style="display:inline;fill:#000000;stroke:#ffffff;stroke-width:3.63598728;stroke-miterlimit:4;stroke-dasharray:none"
         inkscape:label="hull"
         id="layer3-5-0">
        <path
           inkscape:connector-curvature="0"
           sodipodi:nodetypes="cccccccc"
           id="path2765-0-6"
           d="m 36,123 147,0 c 8,-8 8,-8 8,-16 l -151,0 c -2,0 -2,0 -4,-1 L 4,90 4,91 c 32,17 32,24 32,32 z"
           style="fill:#000000;fill-opacity:1;fill-rule:nonzero;stroke:#ffffff;stroke-width:3.63598728;stroke-miterlimit:4;stroke-dasharray:none" />
      </g>
      <g
         transform="translate(-3.75,-4)"
         style="display:inline;fill:#000000;stroke:#ffffff;stroke-width:3.63598728;stroke-miterlimit:4;stroke-dasharray:none"
         inkscape:label="spanker"
         id="layer5-3-8">
        <path
           id="path3576-6-9"
           d="m 161,105 46,-7 0,-1 -46,6 0,2 z"
           style="fill:#000000;fill-opacity:1;fill-rule:nonzero;stroke:#ffffff;stroke-width:3.63598728;stroke-miterlimit:4;stroke-dasharray:none"
           sodipodi:nodetypes="ccccc"
           inkscape:connector-curvature="0" />
        <path
           id="path4306-1-2"
           d="m 161,76 27,-11 0,-1 -27,10 0,2 z"
           style="fill:#000000;fill-opacity:1;fill-rule:nonzero;stroke:#ffffff;stroke-width:3.63598728;stroke-miterlimit:4;stroke-dasharray:none"
           sodipodi:nodetypes="ccccc"
           inkscape:connector-curvature="0" />
      </g>
      <g
         transform="translate(-3.75,-4)"
         style="display:inline;fill:#000000;stroke:#ffffff;stroke-width:3.63598728;stroke-miterlimit:4;stroke-dasharray:none"
         inkscape:label="mizzen"
         id="layer6-0-6">
        <path
           id="path1435-6-6"
           d="m 161,24 -1,0 -1,12 -1,71 3,0 0,-83 z"
           style="display:inline;fill:#000000;fill-opacity:1;fill-rule:nonzero;stroke:#ffffff;stroke-width:3.63598728;stroke-miterlimit:4;stroke-dasharray:none"
           sodipodi:nodetypes="cccccc"
           inkscape:connector-curvature="0" />
        <path
           sodipodi:nodetypes="cccccc"
           id="path1437-3-4"
           d="m 144,53 34,0 0,-1 -17,-1 -17,1 0,1 z"
           style="fill:#000000;fill-opacity:1;fill-rule:nonzero;stroke:#ffffff;stroke-width:3.63598728;stroke-miterlimit:4;stroke-dasharray:none"
           inkscape:connector-curvature="0" />
        <path
           sodipodi:nodetypes="cccccc"
           id="path1439-2-9"
           d="m 182,76 -42,0 0,-1 21,-1 21,1 0,1 z"
           style="fill:#000000;fill-opacity:1;fill-rule:nonzero;stroke:#ffffff;stroke-width:3.63598728;stroke-miterlimit:4;stroke-dasharray:none"
           inkscape:connector-curvature="0" />
        <path
           sodipodi:nodetypes="ccccc"
           id="path1443-0-5"
           d="m 156,26 10,0 0,-1 -10,0 0,1 z"
           style="fill:#000000;fill-opacity:1;fill-rule:nonzero;stroke:#ffffff;stroke-width:3.63598728;stroke-miterlimit:4;stroke-dasharray:none"
           inkscape:connector-curvature="0" />
        <path
           sodipodi:nodetypes="cccccc"
           id="path1449-6-0"
           d="m 149,38 24,0 0,-1 -12,-1 -12,1 0,1 z"
           style="display:inline;fill:#000000;fill-opacity:1;fill-rule:nonzero;stroke:#ffffff;stroke-width:3.63598728;stroke-miterlimit:4;stroke-dasharray:none"
           inkscape:connector-curvature="0" />
      </g>
      <g
         transform="translate(-3.75,-4)"
         style="display:inline;fill:#000000;stroke:#ffffff;stroke-width:3.63598728;stroke-miterlimit:4;stroke-dasharray:none"
         id="layer1-3-1-4"
         inkscape:label="mainsail">
        <path
           id="path1364-5-8"
           d="m 124,4 -1,0 -1,14 -1,89 3,0 0,-103 z"
           style="display:inline;fill:#000000;fill-opacity:1;fill-rule:nonzero;stroke:#ffffff;stroke-width:3.63598728;stroke-miterlimit:4;stroke-dasharray:none"
           sodipodi:nodetypes="cccccc"
           inkscape:connector-curvature="0" />
        <path
           sodipodi:nodetypes="cccccc"
           id="path1366-5-7"
           d="m 103,41 42,0 0,-1 -21,-1 -21,1 0,1 z"
           style="fill:#000000;fill-opacity:1;fill-rule:nonzero;stroke:#ffffff;stroke-width:3.63598728;stroke-miterlimit:4;stroke-dasharray:none"
           inkscape:connector-curvature="0" />
        <path
           sodipodi:nodetypes="cccccc"
           id="path1368-4-1"
           d="m 150,68 -52,0 0,-1 26,-1 26,1 0,1 z"
           style="fill:#000000;fill-opacity:1;fill-rule:nonzero;stroke:#ffffff;stroke-width:3.63598728;stroke-miterlimit:4;stroke-dasharray:none"
           inkscape:connector-curvature="0" />
        <path
           sodipodi:nodetypes="ccccc"
           id="path1372-7-7"
           d="m 117,7 14,0 0,-1 -14,0 0,1 z"
           style="fill:#000000;fill-opacity:1;fill-rule:nonzero;stroke:#ffffff;stroke-width:3.63598728;stroke-miterlimit:4;stroke-dasharray:none"
           inkscape:connector-curvature="0" />
        <path
           sodipodi:nodetypes="cccccc"
           id="path1378-6-2"
           d="m 109,21 30,0 0,-1 -15,-1 -15,1 0,1 z"
           style="display:inline;fill:#000000;fill-opacity:1;fill-rule:nonzero;stroke:#ffffff;stroke-width:3.63598728;stroke-miterlimit:4;stroke-dasharray:none"
           inkscape:connector-curvature="0" />
      </g>
      <g
         transform="translate(-3.75,-4)"
         style="display:inline;fill:#000000;stroke:#ffffff;stroke-width:3.63598728;stroke-miterlimit:4;stroke-dasharray:none"
         inkscape:label="forsail"
         id="layer4-5-7">
        <path
           id="path4228-6-2"
           d="m 86,14 -1,0 -1,14 -1,79 3,0 0,-93 z"
           style="display:inline;fill:#000000;fill-opacity:1;fill-rule:nonzero;stroke:#ffffff;stroke-width:3.63598728;stroke-miterlimit:4;stroke-dasharray:none"
           sodipodi:nodetypes="cccccc"
           inkscape:connector-curvature="0" />
        <path
           sodipodi:nodetypes="cccccc"
           id="path3544-9-2"
           d="m 67,47 38,0 0,-1 -19,-1 -19,1 0,1 z"
           style="fill:#000000;fill-opacity:1;fill-rule:nonzero;stroke:#ffffff;stroke-width:3.63598728;stroke-miterlimit:4;stroke-dasharray:none"
           inkscape:connector-curvature="0" />
        <path
           sodipodi:nodetypes="cccccc"
           id="path3546-3-6"
           d="m 109,72 -46,0 0,-1 23,-1 23,1 0,1 z"
           style="fill:#000000;fill-opacity:1;fill-rule:nonzero;stroke:#ffffff;stroke-width:3.63598728;stroke-miterlimit:4;stroke-dasharray:none"
           inkscape:connector-curvature="0" />
        <path
           sodipodi:nodetypes="ccccc"
           id="path2816-7-1"
           d="m 80,17 12,0 0,-1 -12,0 0,1 z"
           style="fill:#000000;fill-opacity:1;fill-rule:nonzero;stroke:#ffffff;stroke-width:3.63598728;stroke-miterlimit:4;stroke-dasharray:none"
           inkscape:connector-curvature="0" />
        <path
           sodipodi:nodetypes="cccccc"
           id="path1347-4-0"
           d="m 72,30 28,0 0,-1 -14,-1 -14,1 0,1 z"
           style="display:inline;fill:#000000;fill-opacity:1;fill-rule:nonzero;stroke:#ffffff;stroke-width:3.63598728;stroke-miterlimit:4;stroke-dasharray:none"
           inkscape:connector-curvature="0" />
      </g>
      <g
         transform="translate(-3.75,-4)"
         style="display:inline;fill:#000000;stroke:#ffffff;stroke-width:3.63598728;stroke-miterlimit:4;stroke-dasharray:none"
         inkscape:label="jib"
         id="layer2-52-6">
        <g
           style="fill:#000000;stroke:#ffffff;stroke-width:3.63598728;stroke-miterlimit:4;stroke-dasharray:none"
           id="g3093-5-1">
          <path
             inkscape:connector-curvature="0"
             sodipodi:nodetypes="ccccc"
             id="path2058-4-5"
             d="m 161,76 27,-11 19,32 -46,6 0,-27 z"
             style="display:inline;fill:#000000;fill-opacity:1;fill-rule:nonzero;stroke:#ffffff;stroke-width:3.63598728;stroke-miterlimit:4;stroke-dasharray:none" />
          <path
             inkscape:connector-curvature="0"
             style="display:inline;fill:#000000;fill-opacity:1;fill-rule:nonzero;stroke:#ffffff;stroke-width:3.63598728;stroke-miterlimit:4;stroke-dasharray:none"
             d="m 140,75 c 0,0 11,-2 21,-2 10,0 21,2 21,2 l -4,-22 -34,0 -4,22 z"
             id="path1445-7-9"
             sodipodi:nodetypes="czcccc" />
          <path
             inkscape:connector-curvature="0"
             style="display:inline;fill:#000000;fill-opacity:1;fill-rule:nonzero;stroke:#ffffff;stroke-width:3.63598728;stroke-miterlimit:4;stroke-dasharray:none"
             d="m 144,52 c 0,0 9,-2 17,-2 8,0 17,2 17,2 l -5,-14 -24,0 -5,14 z"
             id="path1447-4-4"
             sodipodi:nodetypes="czcccc" />
          <path
             inkscape:connector-curvature="0"
             style="display:inline;fill:#000000;fill-opacity:1;fill-rule:nonzero;stroke:#ffffff;stroke-width:3.63598728;stroke-miterlimit:4;stroke-dasharray:none"
             d="m 149,37 c 0,0 6,-2 12,-2 6,0 12,2 12,2 l -7,-11 -10,0 -7,11 z"
             id="path1451-4-9"
             sodipodi:nodetypes="czcccc" />
          <path
             inkscape:connector-curvature="0"
             sodipodi:nodetypes="ccczzzcc"
             id="path1453-3-0"
             d="m 140,76 42,0 0,2 c -5,0 -6,1 -11,1 -5,0 -6,-1 -10,-1 -4,0 -5,1 -11,1 -6,0 -7,-1 -10,-1 l 0,-2 z"
             style="display:inline;fill:#000000;fill-opacity:1;fill-rule:nonzero;stroke:#ffffff;stroke-width:3.63598728;stroke-miterlimit:4;stroke-dasharray:none" />
          <path
             inkscape:connector-curvature="0"
             style="display:inline;fill:#000000;fill-opacity:1;fill-rule:nonzero;stroke:#ffffff;stroke-width:3.63598728;stroke-miterlimit:4;stroke-dasharray:none"
             d="m 96,107 c 0,0 14,-3 28,-3 14,0 28,3 28,3 l -2,-39 -52,0 -2,39 z"
             id="path1370-0-9"
             sodipodi:nodetypes="czcccc" />
          <path
             inkscape:connector-curvature="0"
             style="display:inline;fill:#000000;fill-opacity:1;fill-rule:nonzero;stroke:#ffffff;stroke-width:3.63598728;stroke-miterlimit:4;stroke-dasharray:none"
             d="m 98,67 c 0,0 13,-3 26,-3 13,0 26,3 26,3 l -5,-26 -42,0 -5,26 z"
             id="path1374-7-1"
             sodipodi:nodetypes="czcccc" />
          <path
             inkscape:connector-curvature="0"
             style="display:inline;fill:#000000;fill-opacity:1;fill-rule:nonzero;stroke:#ffffff;stroke-width:3.63598728;stroke-miterlimit:4;stroke-dasharray:none"
             d="m 103,40 c 0,0 11,-2 21,-2 10,0 21,2 21,2 l -6,-19 -30,0 -6,19 z"
             id="path1376-8-7"
             sodipodi:nodetypes="czcccc" />
          <path
             inkscape:connector-curvature="0"
             style="display:inline;fill:#000000;fill-opacity:1;fill-rule:nonzero;stroke:#ffffff;stroke-width:3.63598728;stroke-miterlimit:4;stroke-dasharray:none"
             d="m 109,20 c 0,0 7,-2 15,-2 8,0 15,2 15,2 l -8,-13 -14,0 -8,13 z"
             id="path1380-6-7"
             sodipodi:nodetypes="czcccc" />
          <path
             inkscape:connector-curvature="0"
             style="display:inline;fill:#000000;fill-opacity:1;fill-rule:nonzero;stroke:#ffffff;stroke-width:3.63598728;stroke-miterlimit:4;stroke-dasharray:none"
             d="m 61,107 c 0,0 13,-3 25,-3 12,0 25,3 25,3 l -2,-35 -46,0 -2,35 z"
             id="path2060-8-1"
             sodipodi:nodetypes="czcccc" />
          <path
             inkscape:connector-curvature="0"
             style="display:inline;fill:#000000;fill-opacity:1;fill-rule:nonzero;stroke:#ffffff;stroke-width:3.63598728;stroke-miterlimit:4;stroke-dasharray:none"
             d="m 63,71 c 0,0 11,-2 23,-2 12,0 23,2 23,2 l -4,-24 -38,0 -4,24 z"
             id="path1343-8-1"
             sodipodi:nodetypes="czcccc" />
          <path
             inkscape:connector-curvature="0"
             style="display:inline;fill:#000000;fill-opacity:1;fill-rule:nonzero;stroke:#ffffff;stroke-width:3.63598728;stroke-miterlimit:4;stroke-dasharray:none"
             d="m 67,46 c 0,0 9.6,-2 19,-2 9,0 19,2 19,2 l -5,-16 -28,0 -5,16 z"
             id="path1345-4-5"
             sodipodi:nodetypes="czcccc" />
          <path
             inkscape:connector-curvature="0"
             style="display:inline;fill:#000000;fill-opacity:1;fill-rule:nonzero;stroke:#ffffff;stroke-width:3.63598728;stroke-miterlimit:4;stroke-dasharray:none"
             d="m 72,29 c 0,0 6,-2 14,-2 8,0 14,2 14,2 L 92,17 80,17 72,29 Z"
             id="path1349-3-9"
             sodipodi:nodetypes="czcccc" />
          <path
             inkscape:connector-curvature="0"
             style="display:inline;fill:#000000;fill-opacity:1;fill-rule:nonzero;stroke:#ffffff;stroke-width:3.63598728;stroke-miterlimit:4;stroke-dasharray:none"
             d="m 79,103 c -17,0 -34,4 -34,4 l 39,-62 -5,58 z"
             id="path1463-1-7"
             sodipodi:nodetypes="cccc" />
          <path
             inkscape:connector-curvature="0"
             style="display:inline;fill:#000000;fill-opacity:1;fill-rule:nonzero;stroke:#ffffff;stroke-width:3.63598728;stroke-miterlimit:4;stroke-dasharray:none"
             d="m 63,100 c -16,0 -35,2 -35,2 L 84,28 63,100 Z"
             id="path1457-4-7"
             sodipodi:nodetypes="cccc" />
          <path
             inkscape:connector-curvature="0"
             style="display:inline;fill:#000000;fill-opacity:1;fill-rule:nonzero;stroke:#ffffff;stroke-width:3.63598728;stroke-miterlimit:4;stroke-dasharray:none"
             d="M 34,97 C 34,97 19,90 4,90 L 85,16 34,97 Z"
             id="path5140-9-6"
             sodipodi:nodetypes="cccc" />
        </g>
      </g>
    </g>
  </g>
</svg>
