<?xml version="1.0" encoding="UTF-8" standalone="no"?>
<!-- Created with Inkscape (http://www.inkscape.org/) -->

<svg
   xmlns:dc="http://purl.org/dc/elements/1.1/"
   xmlns:cc="http://creativecommons.org/ns#"
   xmlns:rdf="http://www.w3.org/1999/02/22-rdf-syntax-ns#"
   xmlns:svg="http://www.w3.org/2000/svg"
   xmlns="http://www.w3.org/2000/svg"
   xmlns:sodipodi="http://sodipodi.sourceforge.net/DTD/sodipodi-0.dtd"
   xmlns:inkscape="http://www.inkscape.org/namespaces/inkscape"
   width="150"
   height="150"
   viewBox="0 0 150.00001 150"
   id="svg2"
   version="1.1"
   inkscape:version="0.91 r13725"
   sodipodi:docname="back.svg">
  <defs
     id="defs4" />
  <sodipodi:namedview
     id="base"
     pagecolor="#ffffff"
     bordercolor="#666666"
     borderopacity="1.0"
     inkscape:pageopacity="0.0"
     inkscape:pageshadow="2"
     inkscape:zoom="2.2974999"
     inkscape:cx="-103.95973"
     inkscape:cy="45.600175"
     inkscape:document-units="in"
     inkscape:current-layer="text4156"
     showgrid="true"
     units="px"
     inkscape:showpageshadow="false"
     showguides="false"
     inkscape:window-width="1855"
     inkscape:window-height="1056"
     inkscape:window-x="65"
     inkscape:window-y="24"
     inkscape:window-maximized="1"
     objecttolerance="10000"
     inkscape:snap-bbox="true"
     guidetolerance="10000"
     inkscape:object-nodes="true"
     fit-margin-top="0"
     fit-margin-left="0"
     fit-margin-right="0"
     fit-margin-bottom="0">
    <inkscape:grid
       type="xygrid"
       id="grid3338"
       spacingx="5.6250001"
       spacingy="5.625"
       empspacing="1"
       originx="0"
       originy="0.0001490464" />
  </sodipodi:namedview>
  <metadata
     id="metadata7">
    <rdf:RDF>
      <cc:Work
         rdf:about="">
        <dc:format>image/svg+xml</dc:format>
        <dc:type
           rdf:resource="http://purl.org/dc/dcmitype/StillImage" />
        <dc:title />
      </cc:Work>
    </rdf:RDF>
  </metadata>
  <g
     inkscape:label="Layer 1"
     inkscape:groupmode="layer"
     id="layer1"
     transform="translate(0,-902.36234)">
    <rect
       style="fill:#000000;fill-opacity:1;stroke:#000000;stroke-width:8.72406578;stroke-linecap:butt;stroke-linejoin:miter;stroke-miterlimit:4;stroke-dasharray:none;stroke-opacity:1"
       id="rect4137"
       width="141.27594"
       height="141.27596"
       x="4.3620391"
       y="906.72437" />
    <g
       style="font-style:normal;font-weight:normal;font-size:125px;line-height:125%;font-family:sans-serif;letter-spacing:0px;word-spacing:0px;fill:#ffffff;fill-opacity:1;stroke:none;stroke-width:1px;stroke-linecap:butt;stroke-linejoin:miter;stroke-opacity:1"
       id="text4137"
       transform="matrix(0.82525177,0,0,0.82525177,24.769615,204.50289)">
      <g
         style="font-style:normal;font-variant:normal;font-weight:normal;font-stretch:normal;font-size:128.1824646px;line-height:125%;font-family:FreeSans;-inkscape-font-specification:FreeSans;letter-spacing:0px;word-spacing:0px;fill:#ffffff;fill-opacity:1;stroke:none;stroke-width:1px;stroke-linecap:butt;stroke-linejoin:miter;stroke-opacity:1"
         id="text4156">
        <path
           d="m 32.346152,922.60574 q 0.897277,-31.53288 29.994697,-31.53288 12.946429,0 21.021924,7.43458 8.075495,7.43458 8.075495,19.22737 0,16.92008 -19.227369,27.43105 l -12.818247,6.92185 q -8.33186,4.48639 -11.920969,8.71641 -3.589109,4.23002 -4.486386,9.99823 l 47.812059,0 0,11.15187 -60.502123,0 q 0.769094,-14.99734 6.024576,-23.07284 5.255481,-8.20368 19.483734,-16.27917 l 11.792787,-6.66549 q 12.305516,-7.05004 12.305516,-17.94555 0,-7.3064 -5.127298,-12.17733 -5.127299,-4.87093 -12.818247,-4.87093 -17.048267,0 -18.330092,21.66283 l -11.280057,0 z"
           style=""
           id="path3339" />
      </g>
    </g>
  </g>
</svg>
