<?xml version="1.0" encoding="UTF-8" standalone="no"?>
<!-- Created with Inkscape (http://www.inkscape.org/) -->

<svg
   xmlns:dc="http://purl.org/dc/elements/1.1/"
   xmlns:cc="http://creativecommons.org/ns#"
   xmlns:rdf="http://www.w3.org/1999/02/22-rdf-syntax-ns#"
   xmlns:svg="http://www.w3.org/2000/svg"
   xmlns="http://www.w3.org/2000/svg"
   xmlns:sodipodi="http://sodipodi.sourceforge.net/DTD/sodipodi-0.dtd"
   xmlns:inkscape="http://www.inkscape.org/namespaces/inkscape"
   width="1.111111in"
   height="1.111111in"
   viewBox="0 0 99.999996 99.999994"
   id="svg2"
   version="1.1"
   inkscape:version="0.91 r13725"
   sodipodi:docname="good.svg">
  <defs
     id="defs4" />
  <sodipodi:namedview
     id="base"
     pagecolor="#ffffff"
     bordercolor="#666666"
     borderopacity="1.0"
     inkscape:pageopacity="0.0"
     inkscape:pageshadow="2"
     inkscape:zoom="4.595"
     inkscape:cx="60.708877"
     inkscape:cy="46.138267"
     inkscape:document-units="in"
     inkscape:current-layer="layer1"
     showgrid="false"
     units="in"
     inkscape:showpageshadow="false"
     showguides="false"
     inkscape:window-width="1855"
     inkscape:window-height="1056"
     inkscape:window-x="65"
     inkscape:window-y="24"
     inkscape:window-maximized="1"
     objecttolerance="10000"
     inkscape:snap-bbox="true"
     guidetolerance="10000"
     inkscape:object-nodes="true"
     fit-margin-top="0"
     fit-margin-left="0"
     fit-margin-right="0"
     fit-margin-bottom="0">
    <inkscape:grid
       type="xygrid"
       id="grid3338"
       spacingx="5.6250001"
       spacingy="5.625"
       empspacing="1"
       originx="2.3841859e-07"
       originy="-7.8322908e-05" />
  </sodipodi:namedview>
  <metadata
     id="metadata7">
    <rdf:RDF>
      <cc:Work
         rdf:about="">
        <dc:format>image/svg+xml</dc:format>
        <dc:type
           rdf:resource="http://purl.org/dc/dcmitype/StillImage" />
        <dc:title />
      </cc:Work>
    </rdf:RDF>
  </metadata>
  <g
     inkscape:label="Layer 1"
     inkscape:groupmode="layer"
     id="layer1"
     transform="translate(2.3841858e-7,-952.3622)">
    <circle
       style="opacity:1;fill:#c87137;fill-opacity:1;stroke:#000000;stroke-width:5;stroke-linecap:butt;stroke-miterlimit:4;stroke-dasharray:none;stroke-opacity:1"
       id="path4159"
       cx="49.999996"
       cy="1002.3622"
       r="47.5" />
    <g
       id="g4143"
       transform="matrix(0.69002271,0,0,0.69036749,18.944206,306.569)"
       style="stroke:#000000;stroke-width:7.24432868;stroke-miterlimit:4;stroke-dasharray:none">
      <path
         sodipodi:nodetypes="cc"
         inkscape:connector-curvature="0"
         id="path3340-6-0-1"
         d="m 22.5,979.23727 c -11.25,22.50003 -11.25,33.75003 0,56.25003"
         style="fill:none;fill-rule:evenodd;stroke:#000000;stroke-width:7.24432868;stroke-linecap:round;stroke-linejoin:miter;stroke-miterlimit:4;stroke-dasharray:none;stroke-opacity:1" />
      <path
         sodipodi:nodetypes="cc"
         inkscape:connector-curvature="0"
         id="path3340-6-0-1-1"
         d="m 67.5,979.23727 c 11.25,16.875 11.25,39.37503 0,56.25003"
         style="fill:none;fill-rule:evenodd;stroke:#000000;stroke-width:7.24432868;stroke-linecap:round;stroke-linejoin:miter;stroke-miterlimit:4;stroke-dasharray:none;stroke-opacity:1" />
      <path
         sodipodi:nodetypes="cc"
         inkscape:connector-curvature="0"
         id="path3340-6-0-1-1-3"
         d="m 45,979.23724 0,56.25006"
         style="fill:none;fill-rule:evenodd;stroke:#000000;stroke-width:7.24432868;stroke-linecap:round;stroke-linejoin:miter;stroke-miterlimit:4;stroke-dasharray:none;stroke-opacity:1" />
      <path
         sodipodi:nodetypes="cc"
         inkscape:connector-curvature="0"
         id="path3340-6-0-1-1-3-2"
         d="m 67.5,979.23727 c -15,3.34199 -30,3.39229 -45,0"
         style="fill:none;fill-rule:evenodd;stroke:#000000;stroke-width:7.24432868;stroke-linecap:round;stroke-linejoin:miter;stroke-miterlimit:4;stroke-dasharray:none;stroke-opacity:1" />
      <path
         sodipodi:nodetypes="cc"
         inkscape:connector-curvature="0"
         id="path3340-6-0-1-1-3-2-3"
         d="m 67.5,1035.4873 c -13.457075,4.3202 -28.180513,5.0946 -45,0"
         style="fill:none;fill-rule:evenodd;stroke:#000000;stroke-width:7.24432868;stroke-linecap:round;stroke-linejoin:miter;stroke-miterlimit:4;stroke-dasharray:none;stroke-opacity:1" />
      <path
         sodipodi:nodetypes="cc"
         inkscape:connector-curvature="0"
         id="path3340-6-0-1-1-3-9"
         d="m 56.25,979.23721 c 5.625,16.87506 5.625,39.37509 0,56.25009"
         style="fill:none;fill-rule:evenodd;stroke:#000000;stroke-width:7.24432868;stroke-linecap:round;stroke-linejoin:miter;stroke-miterlimit:4;stroke-dasharray:none;stroke-opacity:1" />
      <path
         sodipodi:nodetypes="cc"
         inkscape:connector-curvature="0"
         id="path3340-6-0-1-1-3-9-6"
         d="m 33.75,979.23715 c -5.625,16.87512 -5.625,39.37515 0,56.25015"
         style="fill:none;fill-rule:evenodd;stroke:#000000;stroke-width:7.24432868;stroke-linecap:round;stroke-linejoin:miter;stroke-miterlimit:4;stroke-dasharray:none;stroke-opacity:1" />
      <path
         sodipodi:nodetypes="cc"
         inkscape:connector-curvature="0"
         id="path3340-6-0-1-1-3-2-7"
         d="m 67.499999,979.23727 c -15,-3.34199 -30,-3.39229 -44.999999,0"
         style="fill:none;fill-rule:evenodd;stroke:#000000;stroke-width:7.24432868;stroke-linecap:round;stroke-linejoin:miter;stroke-miterlimit:4;stroke-dasharray:none;stroke-opacity:1" />
    </g>
  </g>
</svg>
